%!PS-Adobe-3.0 EPSF-3.0
%%Creator: MATLAB, The Mathworks, Inc. Version 7.8.0.347 (R2009a). Operating System: Microsoft Windows Vista.
%%Title: C:\Users\anahita\repos\bug-deduplication\MSRpaper\c45_ROC.eps
%%CreationDate: 02/13/2013  19:20:27
%%DocumentNeededFonts: Helvetica
%%DocumentProcessColors: Cyan Magenta Yellow Black
%%LanguageLevel: 2
%%Pages: 1
%%BoundingBox:    96   238   515   553
%%EndComments

%%BeginProlog
% MathWorks dictionary
/MathWorks 160 dict begin
% definition operators
/bdef {bind def} bind def
/ldef {load def} bind def
/xdef {exch def} bdef
/xstore {exch store} bdef
% operator abbreviations
/c  /clip ldef
/cc /concat ldef
/cp /closepath ldef
/gr /grestore ldef
/gs /gsave ldef
/mt /moveto ldef
/np /newpath ldef
/cm /currentmatrix ldef
/sm /setmatrix ldef
/rm /rmoveto ldef
/rl /rlineto ldef
/s {show newpath} bdef
/sc {setcmykcolor} bdef
/sr /setrgbcolor ldef
/sg /setgray ldef
/w /setlinewidth ldef
/j /setlinejoin ldef
/cap /setlinecap ldef
/rc {rectclip} bdef
/rf {rectfill} bdef
% page state control
/pgsv () def
/bpage {/pgsv save def} bdef
/epage {pgsv restore} bdef
/bplot /gsave ldef
/eplot {stroke grestore} bdef
% orientation switch
/portraitMode 0 def /landscapeMode 1 def /rotateMode 2 def
% coordinate system mappings
/dpi2point 0 def
% font control
/FontSize 0 def
/FMS {/FontSize xstore findfont [FontSize 0 0 FontSize neg 0 0]
  makefont setfont} bdef
/ISOLatin1Encoding where {pop /WindowsLatin1Encoding 256 array bdef
ISOLatin1Encoding WindowsLatin1Encoding copy pop
/.notdef/.notdef/quotesinglbase/florin/quotedblbase/ellipsis/dagger
/daggerdbl/circumflex/perthousand/Scaron/guilsinglleft/OE/.notdef/.notdef
/.notdef/.notdef/quoteleft/quoteright/quotedblleft/quotedblright/bullet
/endash/emdash/tilde/trademark/scaron/guilsinglright/oe/.notdef/.notdef
/Ydieresis WindowsLatin1Encoding 128 32 getinterval astore pop}
{/WindowsLatin1Encoding StandardEncoding bdef} ifelse
/reencode {exch dup where {pop load} {pop StandardEncoding} ifelse
  exch dup 3 1 roll findfont dup length dict begin
  { 1 index /FID ne {def}{pop pop} ifelse } forall
  /Encoding exch def currentdict end definefont pop} bdef
/isroman {findfont /CharStrings get /Agrave known} bdef
/FMSR {3 1 roll 1 index dup isroman {reencode} {pop pop} ifelse
  exch FMS} bdef
/csm {1 dpi2point div -1 dpi2point div scale neg translate
 dup landscapeMode eq {pop -90 rotate}
  {rotateMode eq {90 rotate} if} ifelse} bdef
% line types: solid, dotted, dashed, dotdash
/SO { [] 0 setdash } bdef
/DO { [.5 dpi2point mul 4 dpi2point mul] 0 setdash } bdef
/DA { [6 dpi2point mul] 0 setdash } bdef
/DD { [.5 dpi2point mul 4 dpi2point mul 6 dpi2point mul 4
  dpi2point mul] 0 setdash } bdef
% macros for lines and objects
/L {lineto stroke} bdef
/MP {3 1 roll moveto 1 sub {rlineto} repeat} bdef
/AP {{rlineto} repeat} bdef
/PDlw -1 def
/W {/PDlw currentlinewidth def setlinewidth} def
/PP {closepath eofill} bdef
/DP {closepath stroke} bdef
/MR {4 -2 roll moveto dup  0 exch rlineto exch 0 rlineto
  neg 0 exch rlineto closepath} bdef
/FR {MR stroke} bdef
/PR {MR fill} bdef
/L1i {{currentfile picstr readhexstring pop} image} bdef
/tMatrix matrix def
/MakeOval {newpath tMatrix currentmatrix pop translate scale
0 0 1 0 360 arc tMatrix setmatrix} bdef
/FO {MakeOval stroke} bdef
/PO {MakeOval fill} bdef
/PD {currentlinewidth 2 div 0 360 arc fill
   PDlw -1 eq not {PDlw w /PDlw -1 def} if} def
/FA {newpath tMatrix currentmatrix pop translate scale
  0 0 1 5 -2 roll arc tMatrix setmatrix stroke} bdef
/PA {newpath tMatrix currentmatrix pop	translate 0 0 moveto scale
  0 0 1 5 -2 roll arc closepath tMatrix setmatrix fill} bdef
/FAn {newpath tMatrix currentmatrix pop translate scale
  0 0 1 5 -2 roll arcn tMatrix setmatrix stroke} bdef
/PAn {newpath tMatrix currentmatrix pop translate 0 0 moveto scale
  0 0 1 5 -2 roll arcn closepath tMatrix setmatrix fill} bdef
/vradius 0 def /hradius 0 def /lry 0 def
/lrx 0 def /uly 0 def /ulx 0 def /rad 0 def
/MRR {/vradius xdef /hradius xdef /lry xdef /lrx xdef /uly xdef
  /ulx xdef newpath tMatrix currentmatrix pop ulx hradius add uly
  vradius add translate hradius vradius scale 0 0 1 180 270 arc 
  tMatrix setmatrix lrx hradius sub uly vradius add translate
  hradius vradius scale 0 0 1 270 360 arc tMatrix setmatrix
  lrx hradius sub lry vradius sub translate hradius vradius scale
  0 0 1 0 90 arc tMatrix setmatrix ulx hradius add lry vradius sub
  translate hradius vradius scale 0 0 1 90 180 arc tMatrix setmatrix
  closepath} bdef
/FRR {MRR stroke } bdef
/PRR {MRR fill } bdef
/MlrRR {/lry xdef /lrx xdef /uly xdef /ulx xdef /rad lry uly sub 2 div def
  newpath tMatrix currentmatrix pop ulx rad add uly rad add translate
  rad rad scale 0 0 1 90 270 arc tMatrix setmatrix lrx rad sub lry rad
  sub translate rad rad scale 0 0 1 270 90 arc tMatrix setmatrix
  closepath} bdef
/FlrRR {MlrRR stroke } bdef
/PlrRR {MlrRR fill } bdef
/MtbRR {/lry xdef /lrx xdef /uly xdef /ulx xdef /rad lrx ulx sub 2 div def
  newpath tMatrix currentmatrix pop ulx rad add uly rad add translate
  rad rad scale 0 0 1 180 360 arc tMatrix setmatrix lrx rad sub lry rad
  sub translate rad rad scale 0 0 1 0 180 arc tMatrix setmatrix
  closepath} bdef
/FtbRR {MtbRR stroke } bdef
/PtbRR {MtbRR fill } bdef
/stri 6 array def /dtri 6 array def
/smat 6 array def /dmat 6 array def
/tmat1 6 array def /tmat2 6 array def /dif 3 array def
/asub {/ind2 exch def /ind1 exch def dup dup
  ind1 get exch ind2 get sub exch } bdef
/tri_to_matrix {
  2 0 asub 3 1 asub 4 0 asub 5 1 asub
  dup 0 get exch 1 get 7 -1 roll astore } bdef
/compute_transform {
  dmat dtri tri_to_matrix tmat1 invertmatrix 
  smat stri tri_to_matrix tmat2 concatmatrix } bdef
/ds {stri astore pop} bdef
/dt {dtri astore pop} bdef
/db {2 copy /cols xdef /rows xdef mul dup 3 mul string
  currentfile 
  3 index 0 eq {/ASCIIHexDecode filter}
  {/ASCII85Decode filter 3 index 2 eq {/RunLengthDecode filter} if }
  ifelse exch readstring pop
  dup 0 3 index getinterval /rbmap xdef
  dup 2 index dup getinterval /gbmap xdef
  1 index dup 2 mul exch getinterval /bbmap xdef pop pop}bdef
/it {gs np dtri aload pop moveto lineto lineto cp c
  cols rows 8 compute_transform 
  rbmap gbmap bbmap true 3 colorimage gr}bdef
/il {newpath moveto lineto stroke}bdef
currentdict end def
%%EndProlog

%%BeginSetup
MathWorks begin

0 cap

end
%%EndSetup

%%Page: 1 1
%%BeginPageSetup
%%PageBoundingBox:    96   238   515   553
MathWorks begin
bpage
%%EndPageSetup

%%BeginObject: obj1
bplot

/dpi2point 12 def
portraitMode 1152 6636 csm

    0     0  5039  3780 rc
88 dict begin %Colortable dictionary
/c0 { 0.000000 0.000000 0.000000 sr} bdef
/c1 { 1.000000 1.000000 1.000000 sr} bdef
/c2 { 0.900000 0.000000 0.000000 sr} bdef
/c3 { 0.000000 0.820000 0.000000 sr} bdef
/c4 { 0.000000 0.000000 0.800000 sr} bdef
/c5 { 0.910000 0.820000 0.320000 sr} bdef
/c6 { 1.000000 0.260000 0.820000 sr} bdef
/c7 { 0.000000 0.820000 0.820000 sr} bdef
c0
1 j
1 sg
   0    0 5040 3781 rf
6 w
0 3081 3905 0 0 -3081 655 3364 4 MP
PP
-3905 0 0 3081 3905 0 0 -3081 655 3364 5 MP stroke
4 w
DO
SO
6 w
0 sg
 655  283 mt 4560  283 L
 655 3364 mt 4560 3364 L
4560 3364 mt 4560  283 L
 655 3364 mt  655  283 L
 655 3364 mt 4560 3364 L
 655 3364 mt  655  283 L
 655 3364 mt  655 3324 L
 655  283 mt  655  322 L
%%IncludeResource: font Helvetica
/Helvetica /WindowsLatin1Encoding 120 FMSR

 622 3509 mt 
(0) s
1436 3364 mt 1436 3324 L
1436  283 mt 1436  322 L
1353 3509 mt 
(0.2) s
2217 3364 mt 2217 3324 L
2217  283 mt 2217  322 L
2134 3509 mt 
(0.4) s
2998 3364 mt 2998 3324 L
2998  283 mt 2998  322 L
2915 3509 mt 
(0.6) s
3779 3364 mt 3779 3324 L
3779  283 mt 3779  322 L
3696 3509 mt 
(0.8) s
4560 3364 mt 4560 3324 L
4560  283 mt 4560  322 L
4527 3509 mt 
(1) s
 655 3364 mt  694 3364 L
4560 3364 mt 4520 3364 L
 554 3408 mt 
(0) s
 655 3055 mt  694 3055 L
4560 3055 mt 4520 3055 L
 454 3099 mt 
(0.1) s
 655 2747 mt  694 2747 L
4560 2747 mt 4520 2747 L
 454 2791 mt 
(0.2) s
 655 2439 mt  694 2439 L
4560 2439 mt 4520 2439 L
 454 2483 mt 
(0.3) s
 655 2131 mt  694 2131 L
4560 2131 mt 4520 2131 L
 454 2175 mt 
(0.4) s
 655 1823 mt  694 1823 L
4560 1823 mt 4520 1823 L
 454 1867 mt 
(0.5) s
 655 1515 mt  694 1515 L
4560 1515 mt 4520 1515 L
 454 1559 mt 
(0.6) s
 655 1207 mt  694 1207 L
4560 1207 mt 4520 1207 L
 454 1251 mt 
(0.7) s
 655  899 mt  694  899 L
4560  899 mt 4520  899 L
 454  943 mt 
(0.8) s
 655  591 mt  694  591 L
4560  591 mt 4520  591 L
 454  635 mt 
(0.9) s
 655  283 mt  694  283 L
4560  283 mt 4520  283 L
 554  327 mt 
(1) s
 655  283 mt 4560  283 L
 655 3364 mt 4560 3364 L
4560 3364 mt 4560  283 L
 655 3364 mt  655  283 L
gs 655 283 3906 3082 rc
/c8 { 0.000000 1.000000 1.000000 sr} bdef
c8
0 5 -1 6 0 9 -1 0 0 29 -3 45 -3 59 -3 48 
-2 44 -3 55 -2 58 -2 51 -3 59 -2 62 -1 51 0 3 
-1 3 0 3 -2 12 0 2 -4 26 -2 4 -5 28 -4 17 
-5 26 -3 28 -4 22 -3 27 -4 23 -1 1 0 3 -4 30 
-1 5 0 7 -1 3 0 1 -1 3 0 4 -4 11 -4 14 
-3 13 -3 12 -4 20 -3 18 -3 12 -9 14 -4 13 -6 27 
-11 23 -6 34 -3 16 -7 25 -6 24 -10 33 -9 33 -16 50 
-1 3 -18 49 -2 1 -1 3 -1 1 -2 0 -2 13 -5 6 
-4 3 -4 5 -1 1 -4 5 -1 1 -3 7 -2 1 -4 11 
-4 11 -1 4 -1 3 0 3 -3 6 -2 5 -4 4 -2 4 
-1 1 -3 4 -2 5 -3 5 -1 2 -1 2 0 2 -1 2 
-2 1 -1 1 -2 1 -3 2 -2 3 0 1 -1 2 -1 2 
-1 2 -2 4 -1 1 -2 1 0 1 -2 2 -3 2 -1 1 
-1 1 0 2 -1 0 -1 0 -1 0 -4 1 -345 151 -4 1 
-342 142 -341 168 -341 146 -342 177 -347 155 -341 163 -338 158 -4 1 
-1 1 -335 139 -335 149 -2 2 -3 3 -5 3 -5 1 0 2 
-6 2 -1 2 -2 1 -1 0 -1 1 -13 1 -15 3 -15 1 
-14 3 -12 3 -14 4 -16 2 -11 4 -2 0 -12 4 -16 4 
-2 0 -1 0 -1 0 -1 1 -3 0 -1 0 -15 1 4560 283 152 MP stroke
/c9 { 0.000000 1.000000 0.000000 sr} bdef
c9
0 16 -1 10 0 7 -1 2 0 9 -1 10 0 49 -1 5 
0 3 -1 4 0 5 -1 6 0 23 -1 5 0 60 -1 2 
0 20 -1 9 0 29 -1 3 0 10 -1 5 -1 6 -3 13 
0 12 -1 15 -1 17 0 6 -2 36 0 1 -1 11 -1 8 
-1 5 -1 8 0 27 -1 2 0 7 -2 20 -1 16 0 4 
-1 7 0 12 -1 10 0 14 -1 19 0 5 -1 0 0 5 
-2 5 -5 26 -1 1 0 4 -2 31 -2 32 -1 4 0 3 
-3 35 0 4 -1 38 -3 27 -2 43 0 7 -1 1 -1 5 
-1 7 -1 20 0 3 -1 4 -1 23 -2 19 0 5 -1 26 
-2 12 0 22 -1 0 0 13 -1 4 -1 10 -1 1 0 7 
-1 3 0 2 -1 5 -3 15 0 6 -2 6 -1 8 0 3 
-1 6 -1 1 0 2 -1 2 0 2 -1 5 0 1 -1 5 
-8 30 -1 6 -2 6 -2 13 0 2 -1 7 -1 3 -1 0 
1 0 -5 21 0 6 -1 2 0 5 -2 9 0 7 -1 4 
-1 7 -1 0 -1 7 0 3 -2 9 -1 4 -1 0 0 4 
-4 13 -6 19 -1 7 0 6 -2 14 -1 1 -2 10 0 10 
-4 13 -5 21 -1 6 -2 1 -1 3 -1 3 0 5 -1 7 
-1 1 -1 2 0 1 -1 2 -1 0 0 2 -1 3 -1 2 
-2 5 -1 1 0 1 -3 3 -1 2 -1 13 -1 4 -1 3 
-1 0 -1 3 -4 5 -1 2 -1 3 -1 0 1 0 -3 6 
-4 6 0 1 -1 2 -1 2 -2 3 -2 9 -1 2 0 2 
-1 0 -3 5 -1 4 -2 2 -3 8 -1 4 -3 10 0 2 
-3 6 -1 1 0 1 -3 5 -2 1 -2 2 -1 2 -4 5 
-1 1 -2 7 0 2 -4 12 -6 8 -2 3 -9 18 -1 3 
-4 10 -1 0 -2 3 -3 2 -8 11 -6 13 -1 1 -1 3 
-1 1 -2 4 -1 1 -11 18 -2 10 -4 5 -3 1 -2 3 
-2 0 -12 11 -2 3 -15 26 0 1 -3 8 0 2 -14 15 
-8 11 -1 1 -2 2 -1 3 -9 17 0 1 -3 0 -12 8 
-2 0 -1 3 -1 3 -2 3 -6 10 -1 1 -2 1 -4 4 
-2 2 -11 20 -3 1 -5 5 -3 3 -26 21 -3 6 -2 4 
-1 2 0 3 -1 3 -2 2 -2 4 -1 3 -15 14 -1 2 
-1 3 -3 1 -1 1 0 1 -1 3 -3 2 -3 6 -1 3 
-7 0 -2 1 -8 10 -4 3 0 1 -1 2 -23 15 -2 1 
0 1 -2 1 -14 6 -6 5 -4 4 -1 0 1 0 -5 7 
-1 1 -1 2 -1 2 -21 20 -4 2 -5 11 -27 19 -19 12 
-2 2 -1 2 -1 1 -4 2 -7 4 0 1 -14 15 0 1 
-3 2 -2 1 0 2 -2 1 0 2 -1 4 -12 11 -8 4 
-4 6 -15 10 -1 0 1415 796 300 MP stroke
-2 0 -1 1 -3 2 -6 1 -4 8 -9 3 -6 1 0 1 
-4 0 -16 5 -3 0 -1 0 -12 2 -11 2 -8 4 -7 10 
-6 2 -2 3 -1 0 0 2 -1 2 -1 0 -5 2 -4 0 
-2 2 -1 0 -1 1 -1 0 -1 0 -15 4 -1 3 -2 0 
-16 4 -2 0 -2 6 -17 3 -6 4 -5 5 -9 2 -9 2 
-1 0 -3 4 -36 10 -1 0 -33 7 -36 15 -6 5 -5 2 
-32 11 -1 1 -1 2 -33 16 -1 0 -2 0 -35 10 -3 3 
-2 2 -2 1 -18 3 -23 8 -5 0 -25 5 -11 3 -4 0 
-2 3 -1 2 -2 1 -5 5 -1 2 -2 0 -4 2 -2 1 
-9 0 -7 2 -8 2 -1 0 -9 3 -2 0 -2 0 -1 0 
-13 3 -11 3 -3 0 -1 0 -6 1 -2 0 -6 0 -15 4 
-4 5 -9 1 -7 3 -9 1 -12 1 -13 1 -21 6 -11 4 
-7 0 -1 0 -9 1 -1 2 -9 1 -3 0 -2 2 -14 5 
-15 1 -15 2 -10 1 -2 1 -2 0 -17 6 -3 0 -10 0 
-4 2 -3 0 -12 4 -3 0 -7 0 -14 3 -16 1 -2 1 
-6 0 -2 1 -20 4 -14 3 -11 5 -7 2 -9 2 -17 1 
-19 2 -2 0 -1 1 -16 1 -10 0 -13 0 -5 0 -2 0 
-2 0 -11 1 -2 0 -5 1 -6 1 -13 3 -5 0 -2 0 
-6 1 -3 2 -2 0 -1 1 -17 0 -1 1 -4 0 -1 0 
-7 0 -2 2 -1 0 -3 0 -2 0 -3 0 -3 0 -1 0 
-10 0 -10 0 -11 1 -17 2 -1 0 -11 1 -1 0 -2 0 
-3 0 -22 1 -20 1 -3 0 -2 0 -9 1 -13 0 -11 2 
-15 4 -4 1 -2 0 -2 0 -36 2 -3 0 -7 1 -1 0 
-4 1 -11 2 -9 3 -11 2 -22 1 -4 1 -22 1 -2 1 
-31 1 -2 0 -3 0 -2 1 -20 1 -38 5 -3 1 -2 0 
-26 2 -35 4 -2 0 -21 3 -4 0 -36 5 -33 4 -4 0 
-29 2 -3 0 -3 0 -3 1 -23 0 -18 1 -12 0 -25 1 
-10 0 -2 0 -22 2 -21 1 -12 0 -12 0 -11 0 -13 0 
-4 0 -2 0 -4 0 -80 3 -78 3 -82 4 -83 4 -1 1 
-76 3 -75 3 -9 1 -10 1 -10 0 -4 1 -2 1 -4 1 
-54 1 -4 0 -18 1 -62 2 -61 1 -56 2 -18 2 -6 0 
-399 95 4560 283 250 MP stroke
/c10 { 0.000000 0.000000 1.000000 sr} bdef
c10
0 33 -1 18 -1 6 -1 26 0 27 -1 8 0 53 -1 7 
0 7 -1 4 0 6 -1 6 0 5 -1 13 0 26 -1 11 
-1 26 -1 30 0 32 -1 4 0 4 -1 6 0 13 -1 6 
0 12 -2 25 0 4 -3 28 0 4 -1 17 0 2 -1 24 
0 12 -1 2 -2 33 0 6 -3 48 -1 3 0 3 -2 13 
-1 4 0 16 -3 25 -1 3 0 6 -2 34 -1 36 0 10 
-1 3 0 5 -4 21 -1 2 0 4 -4 19 0 7 -1 7 
-4 20 -1 3 0 12 -4 19 0 6 -2 7 0 10 -4 17 
0 6 -1 7 -1 1 0 5 -3 21 -1 4 0 6 -1 13 
0 1 -4 19 0 5 -1 2 -1 14 -5 30 -2 17 -1 13 
0 2 -2 2 0 9 -1 25 -6 24 0 5 -2 3 0 2 
-1 5 -5 13 0 4 -1 17 0 10 -1 10 0 1 -5 16 
-1 0 0 4 -1 5 0 5 -1 0 -6 21 -2 2 0 10 
-1 0 0 3 -1 3 -2 4 -1 1 -7 18 0 1 -1 3 
0 1 -1 6 -1 0 -1 0 -1 1 -6 12 -1 1 -1 3 
-3 2 -6 11 -2 3 -2 0 -6 17 -4 1 -1 2 -1 3 
-2 3 -3 3 -2 2 -2 0 -9 8 -1 6 -3 2 -2 0 
-1 3 -2 3 -1 0 -2 1 -1 1 -13 13 -2 1 -1 1 
-1 1 -2 2 -5 7 -1 0 -1 1 -1 0 -1 0 -1 5 
-9 4 -3 3 -2 0 -2 1 -1 2 -2 2 -1 0 -3 5 
-1 0 -4 3 -2 3 -9 9 -5 6 -18 4 -1 2 -1 0 
-3 2 -1 1 0 1 -1 1 -3 1 -7 6 -2 1 -2 1 
-2 0 -4 0 -2 1 -3 3 -2 0 -11 10 -2 2 -4 1 
-1 4 -1 1 -2 1 -5 4 -9 6 -5 8 -3 0 -2 0 
-1 0 -4 1 -7 4 -3 2 -24 9 -9 4 -4 2 -1 1 
-2 0 -6 0 -2 4 -25 3 -2 1 -2 0 -2 2 -3 2 
-3 2 -2 0 -3 2 -1 1 -1 0 -9 3 -3 2 -5 3 
-1 1 -11 1 -1 0 -3 0 -3 2 -16 3 -18 8 -62 19 
-1 2 -9 2 -1 1 -21 5 -7 0 -2 1 -19 4 -1 1 
-5 1 -4 1 -5 6 -13 2 -13 2 -2 1 -2 0 -10 3 
-13 0 -12 3 -6 0 -1 0 -18 5 -9 2 -14 1 -1 0 
-5 5 -8 3 -3 1 -15 3 -1 0 -4 1 -5 1 -47 8 
-8 4 -5 0 -50 8 -14 4 -4 0 -21 6 -4 0 -1 0 
-6 0 -8 0 -21 5 -6 3 -5 2 -5 0 -16 5 -1 0 
-3 0 -9 1 -3 0 -13 0 -2 0 -8 3 -5 0 -6 2 
-3 0 -4 1 -29 1 -1 0 -44 8 -5 2 -53 11 -3 0 
-4 0 -10 1 -5 0 -1 1 -5 3 -2 0 -3 0 -4 0 
-40 4 -1 1 -4 1 2107 665 300 MP stroke
-39 6 -4 1 -8 2 -3 1 -10 3 -1 0 -7 2 -4 0 
-15 0 -1 0 -4 1 -6 1 -1 0 -3 1 -2 0 -9 0 
-2 0 -12 0 -5 1 -14 1 -12 2 -2 0 -3 1 -12 1 
-3 0 -4 1 -8 1 -9 0 -29 1 -8 2 -1 0 -9 1 
-4 4 -4 0 -9 2 -6 1 -2 0 -9 0 -33 0 -4 1 
-7 1 -3 0 -2 0 -4 0 -5 0 -3 0 -18 5 -16 3 
-5 3 -10 5 -40 1 -2 0 0 1 -8 2 -3 2 -1 0 
-3 0 -11 0 -1 0 -5 0 -30 3 -14 0 -13 0 -14 0 
-20 0 -4 0 -28 1 -2 0 -35 3 -3 0 -4 0 -41 4 
-3 0 -2 0 -6 1 -29 4 -3 0 -12 0 -2 1 -1 1 
-9 1 -100 1 -9 0 -6 1 -12 1 -33 4 -10 1 -100 5 
-2 1 -97 4 -5 0 -102 5 -2 0 -12 1 -11 2 -103 6 
-3 0 -6 1 -2 0 -8 1 -6 1 -2 1 -7 0 -3 0 
-4 1 -7 0 -25 1 -3 2 -12 0 -4 0 -3 0 -4 1 
-5 0 -4 0 -4 0 -4 0 -5 0 -5 2 -10 1 -60 0 
-57 0 -60 0 -10 1 -52 2 -60 1 -671 254 4560 283 127 MP stroke
/c11 { 1.000000 0.000000 0.000000 sr} bdef
c11
0 10 -1 3 0 12 -1 8 0 7 -1 2 0 45 -1 7 
-1 7 -1 9 0 13 -1 6 0 15 -1 5 0 8 -1 7 
0 5 -1 24 0 7 -1 13 -1 4 0 16 -1 2 0 9 
-1 10 0 11 -1 19 0 14 -3 28 0 9 -2 30 -1 5 
0 9 -2 33 0 15 -3 19 0 5 -1 7 0 11 -1 16 
-1 11 -2 10 0 9 -1 4 0 13 -2 17 0 17 -1 1 
0 7 -4 19 -1 3 -1 7 0 13 -3 41 -1 14 -3 46 
-2 46 -4 98 -1 2 0 3 -2 59 -2 48 -2 61 0 8 
-2 50 -1 11 -3 59 -2 18 -1 3 0 6 -1 3 0 8 
-1 6 -3 23 0 4 -1 3 0 3 -1 2 -2 13 0 4 
-1 1 0 3 -1 3 0 3 -1 4 0 2 -5 16 0 5 
-1 7 0 5 -2 6 0 7 -1 8 0 2 -1 2 -8 23 
0 9 -1 8 0 1 -1 4 0 9 -2 2 -1 4 0 5 
-1 4 -1 9 -5 12 0 3 -1 0 0 2 -1 0 -1 2 
0 2 -2 2 -1 2 -1 4 -2 2 -6 10 -2 3 -5 8 
0 2 -2 6 0 1 -2 4 -6 10 -1 2 -7 12 -1 1 
-7 21 -1 3 -1 1 -1 3 -5 12 -13 13 -6 13 -3 9 
-1 0 0 2 -1 1 -1 0 -6 12 -1 1 -2 2 -1 4 
-2 1 0 2 -4 3 -1 2 -9 10 -1 2 -9 8 -1 4 
0 3 -17 16 -14 17 -2 1 -1 3 -13 12 -8 11 -1 4 
-3 2 -2 0 -2 3 -2 2 0 2 -1 1 0 1 -19 21 
-1 0 -2 0 -1 2 -3 2 -14 19 -1 2 -2 2 -1 2 
-2 2 -1 1 -1 0 -3 3 -1 0 0 2 -1 0 -1 3 
-2 1 -2 5 -1 1 -1 1 -2 4 0 3 -2 2 -3 1 
-2 1 -1 2 -1 1 -1 0 -1 1 -1 2 -29 17 -3 0 
-1 0 -3 1 -5 11 -2 1 -1 2 -1 1 -28 19 -39 21 
-2 2 -18 10 -3 3 -2 3 -3 2 -5 9 -3 0 -1 2 
-19 10 -1 2 -4 5 -2 0 -1 2 -4 3 0 1 -2 4 
-1 0 -2 0 -2 2 -19 10 -6 9 -18 14 -2 1 -1 3 
-1 1 -2 3 -21 8 0 1 -1 2 -2 3 -5 8 -5 2 
-2 3 -12 7 -3 0 -1 3 -3 4 -6 6 -3 0 -24 18 
-5 2 -3 1 -2 1 -1 0 -3 2 -2 6 -2 1 -2 3 
-1 0 -2 1 -2 4 -1 0 -2 1 -1 3 -1 0 -7 3 
-1 1 -6 0 -1 1 -4 3 -2 2 -1 1 -2 0 -4 3 
-2 1 -4 4 -3 0 -3 2 -3 2 -3 0 -1 1 -5 2 
-3 0 -2 3 -1 1 -2 1 -4 0 -8 2 -5 0 -9 1 
-3 0 -3 2 -3 2 -5 1 -3 2 -3 1 -3 1 -4 2 
-5 1 -22 3 -2 3 1568 627 300 MP stroke
-6 2 -4 1 -4 1 -2 0 -10 5 -5 0 -2 2 -5 1 
-2 1 -3 0 -3 1 -5 0 -1 0 -15 1 -87 13 -4 1 
-4 2 -4 2 -11 2 -89 11 -11 1 -85 19 -3 0 -7 1 
-14 3 -81 13 -3 1 -7 2 -13 3 -78 14 -76 8 -3 1 
-83 13 -79 11 -7 1 -4 2 -3 1 -75 14 -4 0 -6 0 
-4 0 -8 1 -30 2 -72 13 -11 1 -15 2 -10 1 -4 0 
-8 2 -3 0 -3 1 -1 0 -6 1 -2 0 -10 2 -8 2 
-6 3 -5 2 -2 0 -3 0 -3 0 -2 0 -6 3 -8 2 
-6 2 -5 0 -6 0 -5 2 -2 2 -10 1 -2 0 -3 0 
-4 0 -7 0 -3 1 -7 1 -8 3 -1 1 -3 1 -3 0 
-48 1 -6 0 -5 0 -4 0 -1 0 -5 1 -7 1 -7 0 
-2 1 -5 0 -2 0 -40 3 -2 0 -3 1 -6 1 -3 0 
-2 0 -1 0 -7 2 -3 0 -4 1 -1 0 -2 0 -5 0 
-2 1 -6 1 -4 0 -4 1 -15 0 -5 2 -14 0 -18 0 
-2 0 -104 4 -4 2 -8 3 -105 5 -3 0 -11 0 -4 3 
-4 1 -3 2 -4 0 -3 0 -106 7 -100 5 -102 6 -2 0 
-2 0 -2 0 -11 2 -97 1 -95 4 -14 2 -3 0 -115 7 
-3 0 -4 0 -5 1 -4 0 -3 0 -5 0 -2 0 -4 0 
-3 0 -6 0 -5 0 -4 1 -11 0 -3 1 -13 0 -9 0 
-4 1 -5 0 -52 0 -56 0 -435 63 4560 283 158 MP stroke
0 sg
0 10 -1 13 0 91 -1 4 0 18 -2 7 0 97 -1 5 
0 42 -1 8 0 17 -1 6 0 8 -1 16 0 26 -1 1 
0 9 -1 8 -2 29 0 2 -1 6 0 5 -1 7 0 18 
-1 18 -1 25 0 2 -1 5 0 11 -2 9 0 20 -1 14 
-1 16 0 27 -1 9 0 35 -1 27 0 40 -1 13 0 22 
-1 9 -1 3 0 6 -1 26 0 5 -1 3 0 7 -1 10 
-1 18 0 19 -1 7 -1 6 -1 10 -1 12 0 3 -1 15 
-1 17 0 7 -2 12 -1 14 -1 4 -3 17 0 1 -1 16 
-2 13 -3 23 0 1 -1 7 -3 15 0 4 -5 24 -4 12 
-4 13 -3 12 -4 11 -9 9 -2 3 -2 2 -2 4 -4 4 
0 1 -4 3 0 2 -3 3 -3 3 -3 3 -2 1 -4 2 
-1 1 -5 5 0 1 -1 2 -7 8 -2 0 -6 5 -2 0 
-1 0 -6 3 -3 1 -8 5 -2 0 -4 1 -1 0 -2 0 
-3 5 -1 0 -2 2 -4 0 -5 4 -3 1 -2 1 -7 4 
-2 1 -7 1 -5 3 -1 2 -2 0 -3 2 -9 4 -1 1 
-2 0 -5 0 -10 6 -3 1 -1 0 -8 0 -1 1 -3 2 
-5 0 -1 1 -4 1 -1 0 -7 1 -5 3 -2 0 -4 4 
-4 0 -2 0 0 2 -5 3 -2 1 -5 0 -3 0 -9 4 
-5 0 0 1 -4 3 -11 0 -3 2 -8 5 -4 1 -7 0 
-4 3 -2 2 -7 0 -5 1 -4 1 -4 0 -10 3 -14 0 
-2 2 -6 2 -2 1 -4 0 -5 0 -6 3 -5 0 -5 1 
-5 1 -9 2 -8 3 -6 1 -5 0 -2 1 -3 1 -3 0 
-4 0 -7 0 -4 3 -1 1 -6 0 -6 0 -11 3 -4 1 
-3 2 -2 0 -10 4 -6 2 -4 1 -14 1 -5 1 -7 0 
-9 3 -3 1 -11 1 -10 3 -7 0 -3 0 -11 1 -8 5 
-4 1 -8 0 -2 4 -10 2 -4 1 -6 5 -5 2 -51 4 
-5 0 -7 0 -4 0 -7 2 -28 6 -4 0 -5 0 -53 4 
-4 1 -3 0 -5 1 -2 1 -8 2 -2 1 -49 3 -52 1 
-10 1 -26 5 -24 6 -11 1 -8 2 -8 1 -9 0 -6 0 
-6 1 -6 0 -6 0 -7 1 -5 0 -3 0 -2 1 -11 1 
-5 3 -48 3 -9 0 -1 0 -9 1 -4 2 -3 2 -45 1 
-3 1 -6 0 -8 0 -5 0 -8 0 -43 4 -6 0 -107 5 
-11 0 -17 0 -33 1 -13 2 -3 0 -6 2 -4 0 -101 2 
-7 0 -4 0 -22 1 -105 3 -7 0 -98 4 -97 3 -9 0 
-10 0 -107 6 -3 1 -28 3 -104 6 -9 1 -2 1 -11 1 
-4 0 -39 5 -23 3 -7 0 -106 5 -3 2 -6 1 -3 1 
-4 0 -10 0 -8 0 -4 1 -6 0 -8 2 -8 1 -12 0 
-14 2 -12 2 -4 0 3309 584 300 MP stroke
-5 0 -4 1 -4 2 -7 0 -18 3 -75 1 -11 1 -7 0 
-4 0 -6 0 -7 0 -16 0 -6 1 -7 1 -9 0 -55 0 
-8 1 -6 1 -8 0 -11 1 -977 288 4560 283 22 MP stroke
/c12 { 1.000000 0.000000 1.000000 sr} bdef
c12
-1 7 -1 10 0 25 -1 12 0 45 -1 13 0 34 -1 17 
0 10 -3 10 0 11 -1 4 -1 22 0 27 -1 6 0 20 
-1 17 -1 13 0 12 -1 5 0 11 -1 14 0 49 -1 7 
-1 12 0 16 -1 2 0 6 -1 22 0 13 -1 10 -1 5 
0 9 -1 28 -1 9 0 7 -1 10 -1 8 -1 9 0 23 
-1 10 -1 8 -1 11 0 9 -1 28 0 2 -1 12 0 4 
-1 6 0 10 -1 13 -1 11 -1 17 0 7 -1 8 0 13 
-1 11 -1 5 0 3 -2 9 -2 16 -1 0 -2 17 -1 3 
-4 5 -2 17 -1 16 -2 9 -3 8 -3 8 -3 6 -3 7 
-8 5 -2 7 -2 8 -3 1 -1 2 -3 5 -5 4 -3 1 
-1 1 -2 2 -4 3 -6 2 -1 0 -3 4 0 1 -2 1 
-5 3 -3 2 -1 0 -3 2 -3 0 -1 1 -7 3 -1 1 
-7 2 -2 0 -3 1 -2 1 -4 6 -5 4 -3 3 -5 2 
-1 0 -2 1 -5 1 -6 0 -1 0 -7 2 -3 1 -3 0 
-2 3 -5 1 -9 4 -1 0 -7 9 -5 2 -6 6 -9 2 
-4 1 -1 1 -1 0 -4 1 -4 5 -4 1 -3 0 -6 1 
-5 4 -2 0 -5 0 -11 4 -4 2 -2 2 -2 0 -9 3 
-10 2 -3 1 -1 0 -3 0 -4 1 -1 1 -1 0 -1 2 
-12 1 -1 0 -13 1 -6 0 -3 1 -3 1 -4 0 -6 2 
-3 2 -3 0 -1 0 -3 0 -2 0 -20 1 -3 1 -11 2 
-11 3 -36 9 -14 3 -6 0 -13 5 -20 0 -7 1 -3 0 
-52 4 -2 0 -4 2 -4 1 -2 0 -8 0 -4 2 -2 0 
-5 0 -3 2 -5 0 -18 2 -36 3 -5 1 -42 2 -2 0 
-3 1 -16 2 -6 3 -49 4 -57 6 -11 4 -3 0 -50 0 
-7 1 -14 2 -4 4 -19 2 -7 0 -2 4 -14 3 -11 0 
-1 0 -45 3 -13 1 -6 3 -2 1 -5 0 -10 0 -11 1 
-3 1 -7 1 -8 1 -45 2 -9 3 -6 1 -1 0 -7 0 
-7 0 -8 1 -10 0 -6 0 -2 1 -44 4 -3 0 -10 0 
-2 1 -5 2 -4 1 -19 3 -11 2 -2 1 -105 4 -9 0 
-2 0 -3 0 -27 2 -4 2 -35 2 -6 0 -45 5 -2 1 
-6 0 -6 0 -5 1 -10 1 -2 0 -5 2 -95 4 -97 3 
-7 0 -35 3 -4 1 -1 0 -11 0 -3 2 -7 1 -9 1 
-99 2 -5 0 -10 1 -33 4 -3 1 -14 1 -4 1 -3 0 
-8 0 -3 2 -4 0 -8 3 -30 1 -4 1 -21 1 -6 0 
-18 1 -4 0 -31 1 -4 2 -3 0 -24 4 -24 6 -3 0 
-5 0 -5 2 -3 1 -8 0 -46 0 -6 0 -13 1 -5 0 
-7 0 -9 0 -16 1 -58 1 -56 1 -51 0 -54 2 -9 1 
-59 1 -8 2 -1138 235 4560 283 300 MP stroke
DA
0 sg
3905 -3081 655 3364 2 MP stroke
gr

DA
SO
0 j
0 -58 -58 0 0 58 58 0 626 3335 5 MP
DP
0 -58 -58 0 0 58 58 0 4531 254 5 MP
DP
DA
gs 655 283 3906 3082 rc
gr

2097 3652 mt 
(False Positive Rate) s
 372 2307 mt  -90 rotate
(True Positive Rate) s
90 rotate
 638 3407 mt 
( ) s
4544  325 mt 
( ) s
SO
1 sg
0 1218 1738 0 0 -1218 2733 3245 4 MP
PP
-1738 0 0 1218 1738 0 0 -1218 2733 3245 5 MP stroke
4 w
DO
SO
6 w
0 sg
2733 2027 mt 4471 2027 L
2733 3245 mt 4471 3245 L
4471 3245 mt 4471 2027 L
2733 3245 mt 2733 2027 L
2733 3245 mt 4471 3245 L
2733 3245 mt 2733 2027 L
2733 2027 mt 4471 2027 L
2733 3245 mt 4471 3245 L
4471 3245 mt 4471 2027 L
2733 3245 mt 2733 2027 L
3206 2174 mt 
(No context) s
gs 2733 2027 1739 1219 rc
c8
364 0 2805 2132 2 MP stroke
gr

c8
0 sg
3206 2342 mt 
(Architecture) s
gs 2733 2027 1739 1219 rc
c9
364 0 2805 2300 2 MP stroke
gr

c9
0 sg
3206 2510 mt 
(NFR) s
gs 2733 2027 1739 1219 rc
c10
364 0 2805 2468 2 MP stroke
gr

c10
0 sg
3206 2679 mt 
(Random English words) s
gs 2733 2027 1739 1219 rc
c11
364 0 2805 2636 2 MP stroke
gr

c11
0 sg
3206 2847 mt 
(LDA) s
gs 2733 2027 1739 1219 rc
364 0 2805 2804 2 MP stroke
gr

3206 3015 mt 
(Labeled-LDA) s
gs 2733 2027 1739 1219 rc
c12
364 0 2805 2972 2 MP stroke
gr

c12
0 sg
3206 3183 mt 
(Base line) s
gs 2733 2027 1739 1219 rc
DA
364 0 2805 3140 2 MP stroke
SO
gs 2914 3067 147 147 rc
0 -58 -58 0 0 58 58 0 2958 3111 5 MP
DP
gr

gr


end %%Color Dict

eplot
%%EndObject

epage
end

showpage

%%Trailer
%%EOF
