%!PS-Adobe-3.0 EPSF-3.0
%%Creator: MATLAB, The Mathworks, Inc. Version 7.8.0.347 (R2009a). Operating System: Microsoft Windows Vista.
%%Title: C:\Users\anahita\Documents\MATLAB\mozilla_J48.eps
%%CreationDate: 07/23/2013  01:29:58
%%DocumentNeededFonts: Helvetica
%%DocumentProcessColors: Cyan Magenta Yellow Black
%%LanguageLevel: 2
%%Pages: 1
%%BoundingBox:    96   238   515   553
%%EndComments

%%BeginProlog
% MathWorks dictionary
/MathWorks 160 dict begin
% definition operators
/bdef {bind def} bind def
/ldef {load def} bind def
/xdef {exch def} bdef
/xstore {exch store} bdef
% operator abbreviations
/c  /clip ldef
/cc /concat ldef
/cp /closepath ldef
/gr /grestore ldef
/gs /gsave ldef
/mt /moveto ldef
/np /newpath ldef
/cm /currentmatrix ldef
/sm /setmatrix ldef
/rm /rmoveto ldef
/rl /rlineto ldef
/s {show newpath} bdef
/sc {setcmykcolor} bdef
/sr /setrgbcolor ldef
/sg /setgray ldef
/w /setlinewidth ldef
/j /setlinejoin ldef
/cap /setlinecap ldef
/rc {rectclip} bdef
/rf {rectfill} bdef
% page state control
/pgsv () def
/bpage {/pgsv save def} bdef
/epage {pgsv restore} bdef
/bplot /gsave ldef
/eplot {stroke grestore} bdef
% orientation switch
/portraitMode 0 def /landscapeMode 1 def /rotateMode 2 def
% coordinate system mappings
/dpi2point 0 def
% font control
/FontSize 0 def
/FMS {/FontSize xstore findfont [FontSize 0 0 FontSize neg 0 0]
  makefont setfont} bdef
/ISOLatin1Encoding where {pop /WindowsLatin1Encoding 256 array bdef
ISOLatin1Encoding WindowsLatin1Encoding copy pop
/.notdef/.notdef/quotesinglbase/florin/quotedblbase/ellipsis/dagger
/daggerdbl/circumflex/perthousand/Scaron/guilsinglleft/OE/.notdef/.notdef
/.notdef/.notdef/quoteleft/quoteright/quotedblleft/quotedblright/bullet
/endash/emdash/tilde/trademark/scaron/guilsinglright/oe/.notdef/.notdef
/Ydieresis WindowsLatin1Encoding 128 32 getinterval astore pop}
{/WindowsLatin1Encoding StandardEncoding bdef} ifelse
/reencode {exch dup where {pop load} {pop StandardEncoding} ifelse
  exch dup 3 1 roll findfont dup length dict begin
  { 1 index /FID ne {def}{pop pop} ifelse } forall
  /Encoding exch def currentdict end definefont pop} bdef
/isroman {findfont /CharStrings get /Agrave known} bdef
/FMSR {3 1 roll 1 index dup isroman {reencode} {pop pop} ifelse
  exch FMS} bdef
/csm {1 dpi2point div -1 dpi2point div scale neg translate
 dup landscapeMode eq {pop -90 rotate}
  {rotateMode eq {90 rotate} if} ifelse} bdef
% line types: solid, dotted, dashed, dotdash
/SO { [] 0 setdash } bdef
/DO { [.5 dpi2point mul 4 dpi2point mul] 0 setdash } bdef
/DA { [6 dpi2point mul] 0 setdash } bdef
/DD { [.5 dpi2point mul 4 dpi2point mul 6 dpi2point mul 4
  dpi2point mul] 0 setdash } bdef
% macros for lines and objects
/L {lineto stroke} bdef
/MP {3 1 roll moveto 1 sub {rlineto} repeat} bdef
/AP {{rlineto} repeat} bdef
/PDlw -1 def
/W {/PDlw currentlinewidth def setlinewidth} def
/PP {closepath eofill} bdef
/DP {closepath stroke} bdef
/MR {4 -2 roll moveto dup  0 exch rlineto exch 0 rlineto
  neg 0 exch rlineto closepath} bdef
/FR {MR stroke} bdef
/PR {MR fill} bdef
/L1i {{currentfile picstr readhexstring pop} image} bdef
/tMatrix matrix def
/MakeOval {newpath tMatrix currentmatrix pop translate scale
0 0 1 0 360 arc tMatrix setmatrix} bdef
/FO {MakeOval stroke} bdef
/PO {MakeOval fill} bdef
/PD {currentlinewidth 2 div 0 360 arc fill
   PDlw -1 eq not {PDlw w /PDlw -1 def} if} def
/FA {newpath tMatrix currentmatrix pop translate scale
  0 0 1 5 -2 roll arc tMatrix setmatrix stroke} bdef
/PA {newpath tMatrix currentmatrix pop	translate 0 0 moveto scale
  0 0 1 5 -2 roll arc closepath tMatrix setmatrix fill} bdef
/FAn {newpath tMatrix currentmatrix pop translate scale
  0 0 1 5 -2 roll arcn tMatrix setmatrix stroke} bdef
/PAn {newpath tMatrix currentmatrix pop translate 0 0 moveto scale
  0 0 1 5 -2 roll arcn closepath tMatrix setmatrix fill} bdef
/vradius 0 def /hradius 0 def /lry 0 def
/lrx 0 def /uly 0 def /ulx 0 def /rad 0 def
/MRR {/vradius xdef /hradius xdef /lry xdef /lrx xdef /uly xdef
  /ulx xdef newpath tMatrix currentmatrix pop ulx hradius add uly
  vradius add translate hradius vradius scale 0 0 1 180 270 arc 
  tMatrix setmatrix lrx hradius sub uly vradius add translate
  hradius vradius scale 0 0 1 270 360 arc tMatrix setmatrix
  lrx hradius sub lry vradius sub translate hradius vradius scale
  0 0 1 0 90 arc tMatrix setmatrix ulx hradius add lry vradius sub
  translate hradius vradius scale 0 0 1 90 180 arc tMatrix setmatrix
  closepath} bdef
/FRR {MRR stroke } bdef
/PRR {MRR fill } bdef
/MlrRR {/lry xdef /lrx xdef /uly xdef /ulx xdef /rad lry uly sub 2 div def
  newpath tMatrix currentmatrix pop ulx rad add uly rad add translate
  rad rad scale 0 0 1 90 270 arc tMatrix setmatrix lrx rad sub lry rad
  sub translate rad rad scale 0 0 1 270 90 arc tMatrix setmatrix
  closepath} bdef
/FlrRR {MlrRR stroke } bdef
/PlrRR {MlrRR fill } bdef
/MtbRR {/lry xdef /lrx xdef /uly xdef /ulx xdef /rad lrx ulx sub 2 div def
  newpath tMatrix currentmatrix pop ulx rad add uly rad add translate
  rad rad scale 0 0 1 180 360 arc tMatrix setmatrix lrx rad sub lry rad
  sub translate rad rad scale 0 0 1 0 180 arc tMatrix setmatrix
  closepath} bdef
/FtbRR {MtbRR stroke } bdef
/PtbRR {MtbRR fill } bdef
/stri 6 array def /dtri 6 array def
/smat 6 array def /dmat 6 array def
/tmat1 6 array def /tmat2 6 array def /dif 3 array def
/asub {/ind2 exch def /ind1 exch def dup dup
  ind1 get exch ind2 get sub exch } bdef
/tri_to_matrix {
  2 0 asub 3 1 asub 4 0 asub 5 1 asub
  dup 0 get exch 1 get 7 -1 roll astore } bdef
/compute_transform {
  dmat dtri tri_to_matrix tmat1 invertmatrix 
  smat stri tri_to_matrix tmat2 concatmatrix } bdef
/ds {stri astore pop} bdef
/dt {dtri astore pop} bdef
/db {2 copy /cols xdef /rows xdef mul dup 3 mul string
  currentfile 
  3 index 0 eq {/ASCIIHexDecode filter}
  {/ASCII85Decode filter 3 index 2 eq {/RunLengthDecode filter} if }
  ifelse exch readstring pop
  dup 0 3 index getinterval /rbmap xdef
  dup 2 index dup getinterval /gbmap xdef
  1 index dup 2 mul exch getinterval /bbmap xdef pop pop}bdef
/it {gs np dtri aload pop moveto lineto lineto cp c
  cols rows 8 compute_transform 
  rbmap gbmap bbmap true 3 colorimage gr}bdef
/il {newpath moveto lineto stroke}bdef
currentdict end def
%%EndProlog

%%BeginSetup
MathWorks begin

0 cap

end
%%EndSetup

%%Page: 1 1
%%BeginPageSetup
%%PageBoundingBox:    96   238   515   553
MathWorks begin
bpage
%%EndPageSetup

%%BeginObject: obj1
bplot

/dpi2point 12 def
portraitMode 1152 6636 csm

    0     0  5039  3780 rc
87 dict begin %Colortable dictionary
/c0 { 0.000000 0.000000 0.000000 sr} bdef
/c1 { 1.000000 1.000000 1.000000 sr} bdef
/c2 { 0.900000 0.000000 0.000000 sr} bdef
/c3 { 0.000000 0.820000 0.000000 sr} bdef
/c4 { 0.000000 0.000000 0.800000 sr} bdef
/c5 { 0.910000 0.820000 0.320000 sr} bdef
/c6 { 1.000000 0.260000 0.820000 sr} bdef
/c7 { 0.000000 0.820000 0.820000 sr} bdef
c0
1 j
1 sg
   0    0 5040 3781 rf
6 w
0 3081 3905 0 0 -3081 655 3364 4 MP
PP
-3905 0 0 3081 3905 0 0 -3081 655 3364 5 MP stroke
4 w
DO
SO
6 w
0 sg
 655  283 mt 4560  283 L
 655 3364 mt 4560 3364 L
4560 3364 mt 4560  283 L
 655 3364 mt  655  283 L
 655 3364 mt 4560 3364 L
 655 3364 mt  655  283 L
 655 3364 mt  655 3324 L
 655  283 mt  655  322 L
%%IncludeResource: font Helvetica
/Helvetica /WindowsLatin1Encoding 120 FMSR

 622 3509 mt 
(0) s
1436 3364 mt 1436 3324 L
1436  283 mt 1436  322 L
1353 3509 mt 
(0.2) s
2217 3364 mt 2217 3324 L
2217  283 mt 2217  322 L
2134 3509 mt 
(0.4) s
2998 3364 mt 2998 3324 L
2998  283 mt 2998  322 L
2915 3509 mt 
(0.6) s
3779 3364 mt 3779 3324 L
3779  283 mt 3779  322 L
3696 3509 mt 
(0.8) s
4560 3364 mt 4560 3324 L
4560  283 mt 4560  322 L
4527 3509 mt 
(1) s
 655 3364 mt  694 3364 L
4560 3364 mt 4520 3364 L
 554 3408 mt 
(0) s
 655 3055 mt  694 3055 L
4560 3055 mt 4520 3055 L
 454 3099 mt 
(0.1) s
 655 2747 mt  694 2747 L
4560 2747 mt 4520 2747 L
 454 2791 mt 
(0.2) s
 655 2439 mt  694 2439 L
4560 2439 mt 4520 2439 L
 454 2483 mt 
(0.3) s
 655 2131 mt  694 2131 L
4560 2131 mt 4520 2131 L
 454 2175 mt 
(0.4) s
 655 1823 mt  694 1823 L
4560 1823 mt 4520 1823 L
 454 1867 mt 
(0.5) s
 655 1515 mt  694 1515 L
4560 1515 mt 4520 1515 L
 454 1559 mt 
(0.6) s
 655 1207 mt  694 1207 L
4560 1207 mt 4520 1207 L
 454 1251 mt 
(0.7) s
 655  899 mt  694  899 L
4560  899 mt 4520  899 L
 454  943 mt 
(0.8) s
 655  591 mt  694  591 L
4560  591 mt 4520  591 L
 454  635 mt 
(0.9) s
 655  283 mt  694  283 L
4560  283 mt 4520  283 L
 554  327 mt 
(1) s
 655  283 mt 4560  283 L
 655 3364 mt 4560 3364 L
4560 3364 mt 4560  283 L
 655 3364 mt  655  283 L
gs 655 283 3906 3082 rc
/c8 { 0.000000 1.000000 1.000000 sr} bdef
c8
-1 11 -3 154 -1 151 -1 163 -1 2 0 23 -1 7 0 3 
-4 187 -8 382 0 2 -3 187 -3 194 0 6 -3 187 -1 190 
-1 5 0 64 -2 3 0 5 -2 21 0 5 -2 33 -2 25 
-2 29 -2 28 -2 26 -2 33 -1 13 0 4 -1 1 -1 3 
0 6 -1 20 -2 7 0 5 -1 10 -3 9 -5 39 -3 49 
-2 2 0 3 -4 11 -1 2 0 2 -3 7 -1 5 -1 6 
-3 14 0 1 -2 9 -5 25 -2 10 -2 12 -2 14 -1 6 
-2 15 -4 12 -2 17 -5 26 -1 17 -3 14 -2 3 -1 4 
-2 5 -2 9 -1 4 -1 5 -2 5 0 1 -1 1 -1 1 
-1 4 -2 1 -1 1 -2 2 -1 4 -1 3 -1 2 -2 8 
0 4 -1 1 0 7 -2 3 0 2 -5 5 -13 11 -2 3 
-1 2 -9 13 0 3 -9 16 -11 17 -12 19 -1 5 0 1 
-9 18 0 3 -2 1 -2 6 -3 3 -4 1 -2 2 -2 2 
-3 3 -6 4 -2 1 -2 2 -2 3 -6 4 -6 6 -2 5 
-4 5 -1 0 -5 6 0 1 -4 3 -1 1 0 3 -37 9 
-43 11 -346 28 -347 32 -351 30 -351 35 -349 28 -349 30 -353 31 
-345 31 -19 0 -15 0 -14 0 -13 0 -13 0 -17 1 -16 1 
-15 1 -303 13 -305 14 -17 2 -17 2 -1 2 4560 283 143 MP stroke
/c9 { 0.000000 1.000000 0.000000 sr} bdef
c9
-19 101 -1 108 0 107 -3 155 -1 142 -2 159 -1 154 -2 159 
-2 146 0 3 -2 300 -1 5 0 8 -1 23 0 4 -1 24 
0 72 -1 0 -1 40 0 30 -1 32 0 4 -1 35 0 30 
-1 24 0 35 -1 7 0 8 -1 7 0 19 -1 7 -1 5 
-1 15 0 1 -1 6 0 17 -1 20 -1 3 0 14 -1 17 
0 23 -1 18 0 36 -1 6 0 7 -1 25 0 21 -1 9 
0 5 -1 9 0 16 -1 10 -1 12 0 9 -1 1 0 16 
-1 1 0 10 -2 10 0 4 -1 8 0 5 -1 1 -2 13 
-1 9 -1 11 -2 14 -1 15 -1 7 -1 9 -1 8 0 3 
-1 10 0 17 -1 16 0 4 -1 1 0 3 -2 4 0 3 
-1 2 0 6 -3 16 -1 0 0 3 -1 3 -2 0 0 8 
-1 1 0 1 -2 2 -1 4 -3 6 0 3 -1 2 -1 0 
0 3 -1 4 -1 5 -2 2 -1 4 -2 5 -2 3 0 6 
-1 5 -1 7 -1 4 -1 2 0 3 -1 4 0 2 -1 5 
-1 3 -1 0 -1 0 0 3 -1 4 0 3 -2 8 -1 1 
0 5 -1 3 -1 1 0 4 -1 1 -1 2 0 3 -3 7 
-2 4 -1 1 -1 3 -1 0 -1 4 -4 8 -1 2 -2 3 
-1 2 -2 1 -3 4 -3 0 -1 0 1 0 -2 6 -3 4 
0 2 -1 2 -3 9 -1 2 0 1 -1 2 -1 2 -1 4 
-1 3 -1 0 -2 4 -1 0 -1 2 -4 8 -3 0 -1 3 
-1 1 -1 1 -4 1 -1 1 -3 9 0 0 -2 3 -1 1 
-3 3 -1 3 -1 0 -1 0 -1 2 -4 1 -3 3 -2 1 
-2 1 -1 0 -10 5 -4 4 -8 7 -15 7 -2 1 -1 1 
-1 1 -1 1 -2 2 -1 1 -1 1 -1 3 -37 7 -1 0 
-35 6 -5 1 -36 9 -38 10 -43 12 -39 12 -49 8 -2 1 
-2 2 -1 3 -3 1 -1 0 -1 0 -1 2 -71 16 -1 1 
-25 4 -1 0 -2 0 -1 4 -2 0 -2 0 -24 6 -3 0 
-1 0 -8 0 -7 0 -1 1 -4 0 -5 0 -8 1 -6 0 
-3 2 -1 0 -3 0 -5 0 -8 1 -6 1 -1 0 -2 0 
-1 1 -4 1 -4 0 -2 0 -3 1 -7 3 -1 1 0 1 
-19 0 -16 0 -14 0 -26 0 -17 0 -15 1 -16 1 -1 1 
-1 0 -299 7 -298 9 -297 11 -298 11 -297 10 -301 13 -303 16 
-296 17 -287 10 -17 2 -17 2 -267 7 -34 69 4560 283 263 MP stroke
/c10 { 0.000000 0.000000 1.000000 sr} bdef
c10
-44 246 0 16 -1 132 0 25 -3 155 -2 141 -1 154 -2 151 
-2 159 0 2 -2 147 0 2 -2 300 -1 141 0 13 -2 2 
0 33 -1 22 -1 16 0 23 -1 7 0 21 -1 25 0 25 
-2 6 0 52 -1 3 0 43 -2 9 0 17 -1 9 0 40 
-1 12 -1 4 0 10 -1 11 0 1 -2 5 0 27 -3 17 
-1 6 0 10 -1 11 -1 7 -1 2 -1 3 0 6 -2 8 
0 2 -1 1 0 17 -1 3 0 7 -1 0 -1 14 0 4 
-1 3 0 4 -1 4 -1 0 -1 5 0 6 -1 6 -1 5 
0 1 -1 5 -1 10 -3 9 0 24 -1 1 -1 3 -1 3 
-1 1 -1 13 -2 10 -1 3 -1 6 -1 1 -1 9 -1 4 
0 3 -4 3 -1 7 -1 2 -2 7 0 3 -1 2 -1 3 
-1 2 -1 0 0 4 -1 4 0 3 -1 2 0 1 -1 1 
-2 0 -1 4 0 1 -1 3 -1 3 0 1 -1 5 -1 3 
-2 2 -2 4 0 1 -1 3 -1 3 -1 1 -2 9 -3 7 
-3 1 -1 4 -1 6 -2 4 -1 5 -2 7 -1 2 -2 2 
0 2 -6 8 -1 0 -1 3 -1 1 0 7 -1 2 0 1 
-3 1 -5 5 -4 1 -1 5 -2 1 -1 0 -4 1 -5 4 
-1 1 -4 2 -2 2 -2 8 -1 2 -2 0 -3 6 -2 4 
-2 3 0 3 -2 7 -1 1 0 2 -2 0 -4 4 -2 6 
-1 0 -3 2 -4 4 -1 0 -3 1 -2 3 -1 1 -1 2 
-2 4 -4 0 -3 6 0 1 -14 0 -1 0 -1 1 -1 0 
-2 2 -4 1 -2 2 -3 3 -8 2 0 1 -1 1 -1 1 
-2 0 -10 3 0 3 -39 10 -2 0 -39 13 -9 3 -35 10 
-3 1 -1 0 -49 8 -1 2 -19 7 -1 1 -2 5 0 1 
-1 3 -1 2 -5 1 -24 3 -21 4 -4 1 -1 2 0 1 
-2 2 -8 2 -18 5 -1 0 -11 2 -3 0 0 2 -1 0 
-1 0 -46 6 -3 0 -1 2 0 1 -2 0 -1 0 -1 1 
-7 0 -5 0 -5 0 -19 0 -16 0 -14 0 -30 0 -17 0 
-15 1 -16 1 -303 8 -302 10 -303 10 -303 13 -308 14 -304 13 
-310 19 -303 17 -293 11 -4 0 -17 2 -16 2 -272 8 -4 1 
-6 1 -56 123 4560 283 243 MP stroke
0 sg
-50 316 0 5 -1 108 0 66 -1 103 0 6 -1 113 -1 129 
-1 4 0 14 -1 115 0 240 -1 134 0 4 -1 18 -1 30 
0 28 -1 9 -1 142 0 8 -1 4 0 24 -2 160 -2 22 
-1 16 0 6 -1 1 0 24 -1 18 0 39 -1 14 0 15 
-1 7 0 37 -1 23 0 63 -1 8 0 50 -1 16 -1 23 
0 44 -2 3 0 4 -1 4 0 13 -1 10 0 5 -1 3 
-1 15 0 2 -1 6 0 17 -1 12 0 3 -1 5 -1 3 
-1 11 -1 6 0 13 -1 5 0 13 -2 7 -1 3 0 9 
-1 3 0 1 -1 9 0 2 -1 11 0 11 -1 4 0 19 
-1 4 0 2 -2 7 -1 7 0 3 -3 9 0 10 -1 1 
0 5 -2 10 -1 2 0 1 -1 6 -1 0 0 8 -1 2 
-1 11 -1 2 0 4 -1 3 0 1 -1 2 0 2 -2 7 
-1 1 -3 10 -2 5 -1 1 0 1 -4 6 0 1 -2 7 
-1 0 -1 1 -3 10 -1 2 -1 1 -1 2 -2 7 -1 0 
-1 1 -1 6 -1 1 -1 1 -1 2 -1 2 -1 1 -3 10 
-4 1 -1 0 -1 1 -1 6 -3 4 -4 1 -1 0 -4 2 
0 2 -1 5 -4 0 -1 0 -2 1 -5 1 -2 0 -5 0 
-2 2 -4 0 -1 0 -2 1 -4 3 -6 1 -4 4 -1 0 
-2 4 -6 1 -2 0 -4 1 -1 2 -17 6 -3 0 -2 1 
-3 3 -3 3 -4 3 -14 7 -18 4 -32 5 -10 2 -5 5 
-5 1 -1 0 -1 1 -1 1 -3 2 -2 0 -1 3 -4 0 
-4 0 -14 3 -2 0 -1 1 -13 3 -3 3 -9 1 -19 7 
-4 5 -1 3 -2 1 -2 0 -9 3 -16 7 -1 1 -3 2 
-1 1 -4 2 -48 7 -2 0 -1 0 -1 0 -2 0 -2 1 
-2 0 -1 0 -13 1 -1 1 -8 0 -2 0 -1 0 -10 2 
-2 1 -6 0 -2 0 -3 1 -6 0 -6 0 -2 0 -8 0 
-6 0 -1 0 -5 0 -19 0 -2 0 -15 0 -15 0 -25 0 
-3 0 -4 0 -17 1 -15 1 -16 1 -302 7 -302 10 -303 12 
-303 10 -304 12 -307 13 -309 18 -5 1 -302 17 -6 1 -292 10 
-17 2 -17 2 -2 1 -271 7 -4 1 -123 181 4560 283 239 MP stroke
/c11 { 1.000000 0.000000 0.000000 sr} bdef
c11
-15 84 -3 155 -1 137 -1 141 -2 146 -2 159 -1 154 -2 150 
-2 159 -1 139 -1 150 0 18 -1 2 0 57 -1 23 -1 35 
0 26 -1 30 0 41 -1 2 0 2 -1 0 0 31 -1 24 
0 45 -2 11 0 7 -1 4 0 12 -2 29 0 10 -1 2 
-1 19 -1 19 -2 43 -1 8 0 1 -1 31 0 10 -1 26 
-2 28 -2 7 -1 2 -2 41 0 22 -2 11 -1 2 0 8 
-1 8 -1 3 -2 7 -1 13 0 8 -3 15 -1 15 -2 16 
-1 0 0 6 -1 7 -2 16 -1 2 -2 6 0 1 -1 5 
-1 1 -1 2 0 2 -2 6 0 6 -1 6 -5 14 0 3 
-1 11 0 3 -1 1 0 2 -1 3 -1 6 0 7 -1 6 
-1 3 0 2 -2 3 -1 3 -2 7 -1 4 -1 3 0 7 
-3 9 -1 3 -1 4 0 6 -1 3 -1 3 -3 5 -1 7 
-1 2 -1 4 -1 1 -1 5 -2 3 0 1 -1 3 -1 5 
0 5 -1 1 0 4 -1 1 -2 2 0 4 -1 2 -4 10 
-3 3 -5 0 -2 6 0 1 -1 1 0 2 -3 2 0 2 
-2 6 0 1 -1 1 -4 5 -2 4 -3 9 -3 11 -1 1 
0 2 -2 1 0 2 -1 0 -2 3 -1 1 -1 2 -3 2 
-3 2 0 1 -1 1 0 2 -1 3 -1 1 -1 3 -4 2 
-2 2 -3 6 -1 2 -5 4 0 4 -2 2 -2 2 -2 1 
-1 0 -1 2 -1 0 -1 1 -1 1 -1 3 -3 2 -2 1 
-3 5 -4 4 0 1 -1 1 -1 3 0 4 -1 3 -4 2 
-1 2 -4 6 -4 0 -1 1 -2 0 0 3 -2 0 -1 1 
-4 5 -1 1 -3 3 -2 1 -5 3 -2 1 0 1 -4 2 
-2 2 0 2 -3 2 -2 1 -1 5 -39 12 -36 6 -42 12 
-36 8 -34 6 -1 1 -38 9 -2 1 -36 10 -39 12 -1 2 
-48 8 -1 3 -3 1 -2 3 -1 1 -1 2 -1 1 -1 0 
-70 15 0 5 -1 0 -2 0 -1 0 -2 1 -4 0 -2 0 
-1 0 -2 1 -1 1 -1 0 -1 3 -10 0 -8 0 -19 0 
-15 0 -15 0 -26 0 -16 1 -16 1 -15 1 -303 13 -302 10 
-302 10 -307 13 -304 14 -293 7 -309 18 -293 10 -295 16 -17 3 
-17 2 -271 8 -34 54 4560 283 244 MP stroke
gr

c11
0 sg
 372 2307 mt  -90 rotate
(True Positive Rate) s
90 rotate
2097 3652 mt 
(False Positive Rate) s
gs 655 283 3906 3082 rc
DA
3905 -3081 655 3364 2 MP stroke
gr

DA
 638 3407 mt 
( ) s
4544  325 mt 
( ) s
SO
1 sg
0 918 1739 0 0 -918 2762 3305 4 MP
PP
-1739 0 0 918 1739 0 0 -918 2762 3305 5 MP stroke
4 w
DO
SO
6 w
0 sg
2762 2387 mt 4501 2387 L
2762 3305 mt 4501 3305 L
4501 3305 mt 4501 2387 L
2762 3305 mt 2762 2387 L
2762 3305 mt 4501 3305 L
2762 3305 mt 2762 2387 L
2762 2387 mt 4501 2387 L
2762 3305 mt 4501 3305 L
4501 3305 mt 4501 2387 L
2762 3305 mt 2762 2387 L
3236 2521 mt 
(No context) s
gs 2762 2387 1740 919 rc
c8
365 0 2834 2478 2 MP stroke
gr

c8
0 sg
3236 2668 mt 
(Architecture) s
gs 2762 2387 1740 919 rc
c9
365 0 2834 2625 2 MP stroke
gr

c9
0 sg
3236 2815 mt 
(NFR) s
gs 2762 2387 1740 919 rc
c10
365 0 2834 2772 2 MP stroke
gr

c10
0 sg
3236 2962 mt 
(Random English words) s
gs 2762 2387 1740 919 rc
365 0 2834 2919 2 MP stroke
gr

3236 3109 mt 
(LDA) s
gs 2762 2387 1740 919 rc
c11
365 0 2834 3066 2 MP stroke
gr

c11
0 sg
3236 3256 mt 
(Base line) s
gs 2762 2387 1740 919 rc
DA
365 0 2834 3213 2 MP stroke
SO
gr


end %%Color Dict

eplot
%%EndObject

epage
end

showpage

%%Trailer
%%EOF
