%!PS-Adobe-3.0 EPSF-3.0
%%Creator: MATLAB, The Mathworks, Inc. Version 7.8.0.347 (R2009a). Operating System: Microsoft Windows Vista.
%%Title: C:\Users\anahita\Documents\MATLAB\openoffice_J48.eps
%%CreationDate: 07/23/2013  01:48:28
%%DocumentNeededFonts: Helvetica
%%DocumentProcessColors: Cyan Magenta Yellow Black
%%LanguageLevel: 2
%%Pages: 1
%%BoundingBox:    96   238   515   553
%%EndComments

%%BeginProlog
% MathWorks dictionary
/MathWorks 160 dict begin
% definition operators
/bdef {bind def} bind def
/ldef {load def} bind def
/xdef {exch def} bdef
/xstore {exch store} bdef
% operator abbreviations
/c  /clip ldef
/cc /concat ldef
/cp /closepath ldef
/gr /grestore ldef
/gs /gsave ldef
/mt /moveto ldef
/np /newpath ldef
/cm /currentmatrix ldef
/sm /setmatrix ldef
/rm /rmoveto ldef
/rl /rlineto ldef
/s {show newpath} bdef
/sc {setcmykcolor} bdef
/sr /setrgbcolor ldef
/sg /setgray ldef
/w /setlinewidth ldef
/j /setlinejoin ldef
/cap /setlinecap ldef
/rc {rectclip} bdef
/rf {rectfill} bdef
% page state control
/pgsv () def
/bpage {/pgsv save def} bdef
/epage {pgsv restore} bdef
/bplot /gsave ldef
/eplot {stroke grestore} bdef
% orientation switch
/portraitMode 0 def /landscapeMode 1 def /rotateMode 2 def
% coordinate system mappings
/dpi2point 0 def
% font control
/FontSize 0 def
/FMS {/FontSize xstore findfont [FontSize 0 0 FontSize neg 0 0]
  makefont setfont} bdef
/ISOLatin1Encoding where {pop /WindowsLatin1Encoding 256 array bdef
ISOLatin1Encoding WindowsLatin1Encoding copy pop
/.notdef/.notdef/quotesinglbase/florin/quotedblbase/ellipsis/dagger
/daggerdbl/circumflex/perthousand/Scaron/guilsinglleft/OE/.notdef/.notdef
/.notdef/.notdef/quoteleft/quoteright/quotedblleft/quotedblright/bullet
/endash/emdash/tilde/trademark/scaron/guilsinglright/oe/.notdef/.notdef
/Ydieresis WindowsLatin1Encoding 128 32 getinterval astore pop}
{/WindowsLatin1Encoding StandardEncoding bdef} ifelse
/reencode {exch dup where {pop load} {pop StandardEncoding} ifelse
  exch dup 3 1 roll findfont dup length dict begin
  { 1 index /FID ne {def}{pop pop} ifelse } forall
  /Encoding exch def currentdict end definefont pop} bdef
/isroman {findfont /CharStrings get /Agrave known} bdef
/FMSR {3 1 roll 1 index dup isroman {reencode} {pop pop} ifelse
  exch FMS} bdef
/csm {1 dpi2point div -1 dpi2point div scale neg translate
 dup landscapeMode eq {pop -90 rotate}
  {rotateMode eq {90 rotate} if} ifelse} bdef
% line types: solid, dotted, dashed, dotdash
/SO { [] 0 setdash } bdef
/DO { [.5 dpi2point mul 4 dpi2point mul] 0 setdash } bdef
/DA { [6 dpi2point mul] 0 setdash } bdef
/DD { [.5 dpi2point mul 4 dpi2point mul 6 dpi2point mul 4
  dpi2point mul] 0 setdash } bdef
% macros for lines and objects
/L {lineto stroke} bdef
/MP {3 1 roll moveto 1 sub {rlineto} repeat} bdef
/AP {{rlineto} repeat} bdef
/PDlw -1 def
/W {/PDlw currentlinewidth def setlinewidth} def
/PP {closepath eofill} bdef
/DP {closepath stroke} bdef
/MR {4 -2 roll moveto dup  0 exch rlineto exch 0 rlineto
  neg 0 exch rlineto closepath} bdef
/FR {MR stroke} bdef
/PR {MR fill} bdef
/L1i {{currentfile picstr readhexstring pop} image} bdef
/tMatrix matrix def
/MakeOval {newpath tMatrix currentmatrix pop translate scale
0 0 1 0 360 arc tMatrix setmatrix} bdef
/FO {MakeOval stroke} bdef
/PO {MakeOval fill} bdef
/PD {currentlinewidth 2 div 0 360 arc fill
   PDlw -1 eq not {PDlw w /PDlw -1 def} if} def
/FA {newpath tMatrix currentmatrix pop translate scale
  0 0 1 5 -2 roll arc tMatrix setmatrix stroke} bdef
/PA {newpath tMatrix currentmatrix pop	translate 0 0 moveto scale
  0 0 1 5 -2 roll arc closepath tMatrix setmatrix fill} bdef
/FAn {newpath tMatrix currentmatrix pop translate scale
  0 0 1 5 -2 roll arcn tMatrix setmatrix stroke} bdef
/PAn {newpath tMatrix currentmatrix pop translate 0 0 moveto scale
  0 0 1 5 -2 roll arcn closepath tMatrix setmatrix fill} bdef
/vradius 0 def /hradius 0 def /lry 0 def
/lrx 0 def /uly 0 def /ulx 0 def /rad 0 def
/MRR {/vradius xdef /hradius xdef /lry xdef /lrx xdef /uly xdef
  /ulx xdef newpath tMatrix currentmatrix pop ulx hradius add uly
  vradius add translate hradius vradius scale 0 0 1 180 270 arc 
  tMatrix setmatrix lrx hradius sub uly vradius add translate
  hradius vradius scale 0 0 1 270 360 arc tMatrix setmatrix
  lrx hradius sub lry vradius sub translate hradius vradius scale
  0 0 1 0 90 arc tMatrix setmatrix ulx hradius add lry vradius sub
  translate hradius vradius scale 0 0 1 90 180 arc tMatrix setmatrix
  closepath} bdef
/FRR {MRR stroke } bdef
/PRR {MRR fill } bdef
/MlrRR {/lry xdef /lrx xdef /uly xdef /ulx xdef /rad lry uly sub 2 div def
  newpath tMatrix currentmatrix pop ulx rad add uly rad add translate
  rad rad scale 0 0 1 90 270 arc tMatrix setmatrix lrx rad sub lry rad
  sub translate rad rad scale 0 0 1 270 90 arc tMatrix setmatrix
  closepath} bdef
/FlrRR {MlrRR stroke } bdef
/PlrRR {MlrRR fill } bdef
/MtbRR {/lry xdef /lrx xdef /uly xdef /ulx xdef /rad lrx ulx sub 2 div def
  newpath tMatrix currentmatrix pop ulx rad add uly rad add translate
  rad rad scale 0 0 1 180 360 arc tMatrix setmatrix lrx rad sub lry rad
  sub translate rad rad scale 0 0 1 0 180 arc tMatrix setmatrix
  closepath} bdef
/FtbRR {MtbRR stroke } bdef
/PtbRR {MtbRR fill } bdef
/stri 6 array def /dtri 6 array def
/smat 6 array def /dmat 6 array def
/tmat1 6 array def /tmat2 6 array def /dif 3 array def
/asub {/ind2 exch def /ind1 exch def dup dup
  ind1 get exch ind2 get sub exch } bdef
/tri_to_matrix {
  2 0 asub 3 1 asub 4 0 asub 5 1 asub
  dup 0 get exch 1 get 7 -1 roll astore } bdef
/compute_transform {
  dmat dtri tri_to_matrix tmat1 invertmatrix 
  smat stri tri_to_matrix tmat2 concatmatrix } bdef
/ds {stri astore pop} bdef
/dt {dtri astore pop} bdef
/db {2 copy /cols xdef /rows xdef mul dup 3 mul string
  currentfile 
  3 index 0 eq {/ASCIIHexDecode filter}
  {/ASCII85Decode filter 3 index 2 eq {/RunLengthDecode filter} if }
  ifelse exch readstring pop
  dup 0 3 index getinterval /rbmap xdef
  dup 2 index dup getinterval /gbmap xdef
  1 index dup 2 mul exch getinterval /bbmap xdef pop pop}bdef
/it {gs np dtri aload pop moveto lineto lineto cp c
  cols rows 8 compute_transform 
  rbmap gbmap bbmap true 3 colorimage gr}bdef
/il {newpath moveto lineto stroke}bdef
currentdict end def
%%EndProlog

%%BeginSetup
MathWorks begin

0 cap

end
%%EndSetup

%%Page: 1 1
%%BeginPageSetup
%%PageBoundingBox:    96   238   515   553
MathWorks begin
bpage
%%EndPageSetup

%%BeginObject: obj1
bplot

/dpi2point 12 def
portraitMode 1152 6636 csm

    0     0  5039  3780 rc
87 dict begin %Colortable dictionary
/c0 { 0.000000 0.000000 0.000000 sr} bdef
/c1 { 1.000000 1.000000 1.000000 sr} bdef
/c2 { 0.900000 0.000000 0.000000 sr} bdef
/c3 { 0.000000 0.820000 0.000000 sr} bdef
/c4 { 0.000000 0.000000 0.800000 sr} bdef
/c5 { 0.910000 0.820000 0.320000 sr} bdef
/c6 { 1.000000 0.260000 0.820000 sr} bdef
/c7 { 0.000000 0.820000 0.820000 sr} bdef
c0
1 j
1 sg
   0    0 5040 3781 rf
6 w
0 3081 3905 0 0 -3081 655 3364 4 MP
PP
-3905 0 0 3081 3905 0 0 -3081 655 3364 5 MP stroke
4 w
DO
SO
6 w
0 sg
 655  283 mt 4560  283 L
 655 3364 mt 4560 3364 L
4560 3364 mt 4560  283 L
 655 3364 mt  655  283 L
 655 3364 mt 4560 3364 L
 655 3364 mt  655  283 L
 655 3364 mt  655 3324 L
 655  283 mt  655  322 L
%%IncludeResource: font Helvetica
/Helvetica /WindowsLatin1Encoding 120 FMSR

 622 3509 mt 
(0) s
1436 3364 mt 1436 3324 L
1436  283 mt 1436  322 L
1353 3509 mt 
(0.2) s
2217 3364 mt 2217 3324 L
2217  283 mt 2217  322 L
2134 3509 mt 
(0.4) s
2998 3364 mt 2998 3324 L
2998  283 mt 2998  322 L
2915 3509 mt 
(0.6) s
3779 3364 mt 3779 3324 L
3779  283 mt 3779  322 L
3696 3509 mt 
(0.8) s
4560 3364 mt 4560 3324 L
4560  283 mt 4560  322 L
4527 3509 mt 
(1) s
 655 3364 mt  694 3364 L
4560 3364 mt 4520 3364 L
 554 3408 mt 
(0) s
 655 3055 mt  694 3055 L
4560 3055 mt 4520 3055 L
 454 3099 mt 
(0.1) s
 655 2747 mt  694 2747 L
4560 2747 mt 4520 2747 L
 454 2791 mt 
(0.2) s
 655 2439 mt  694 2439 L
4560 2439 mt 4520 2439 L
 454 2483 mt 
(0.3) s
 655 2131 mt  694 2131 L
4560 2131 mt 4520 2131 L
 454 2175 mt 
(0.4) s
 655 1823 mt  694 1823 L
4560 1823 mt 4520 1823 L
 454 1867 mt 
(0.5) s
 655 1515 mt  694 1515 L
4560 1515 mt 4520 1515 L
 454 1559 mt 
(0.6) s
 655 1207 mt  694 1207 L
4560 1207 mt 4520 1207 L
 454 1251 mt 
(0.7) s
 655  899 mt  694  899 L
4560  899 mt 4520  899 L
 454  943 mt 
(0.8) s
 655  591 mt  694  591 L
4560  591 mt 4520  591 L
 454  635 mt 
(0.9) s
 655  283 mt  694  283 L
4560  283 mt 4520  283 L
 554  327 mt 
(1) s
 655  283 mt 4560  283 L
 655 3364 mt 4560 3364 L
4560 3364 mt 4560  283 L
 655 3364 mt  655  283 L
gs 655 283 3906 3082 rc
/c8 { 0.000000 1.000000 1.000000 sr} bdef
c8
-1 7 -4 164 -3 160 -6 172 -3 174 -2 165 -3 153 -5 157 
-4 164 -4 178 -3 163 -1 33 -1 1 0 5 -1 6 0 12 
-6 58 -1 0 -5 49 -5 59 -5 55 -5 56 -4 47 0 1 
-3 61 -3 56 -3 60 0 2 -1 1 0 5 -2 9 -2 14 
-1 7 0 11 -2 9 -1 0 -2 12 -2 14 -2 7 -1 6 
0 1 -2 17 0 2 -6 19 0 1 -1 7 -3 13 -1 4 
0 4 -2 6 -1 6 -1 3 -2 3 0 4 -1 7 -1 1 
-1 2 -1 1 -1 4 -1 3 -1 1 0 4 -1 1 -1 1 
-12 13 -13 14 -1 1 -11 15 -12 20 -12 14 -12 17 -9 14 
-11 20 -11 19 -17 17 -12 14 -15 20 -9 10 -12 14 -14 12 
-15 17 -14 17 -12 16 -11 18 -11 20 -1 0 -1 0 -1 1 
0 1 -1 3 -1 1 -26 7 -29 8 -28 6 -25 12 -24 5 
-26 7 -22 8 -29 11 -23 10 -25 7 -329 20 -322 18 -328 16 
-328 23 -330 24 -330 28 -328 28 -328 24 -325 29 -323 31 -1 3 
4560 283 113 MP stroke
/c9 { 0.000000 1.000000 0.000000 sr} bdef
c9
-15 74 -1 92 0 6 -1 82 -1 109 -2 97 -1 114 -1 113 
0 100 -1 102 0 101 -3 130 0 2 -1 2 0 10 -1 4 
0 23 -1 3 0 12 -1 9 0 67 -1 0 -1 33 0 39 
-1 44 -2 41 0 51 -2 36 -1 4 -1 55 -1 48 -1 48 
0 5 -2 38 -2 29 -1 26 -1 25 -3 56 -1 8 -1 27 
0 6 -1 33 0 5 -1 28 0 5 -1 26 -1 17 -1 7 
0 5 -1 2 0 9 -4 17 -1 7 0 6 -1 6 -1 17 
0 11 -1 3 -3 16 -1 1 0 3 -1 14 0 6 -1 8 
-1 2 -2 17 0 8 -2 14 -1 12 0 9 -3 19 -1 19 
0 7 -3 12 0 1 -1 8 -1 1 0 1 -1 7 -1 8 
0 4 -1 5 -2 9 -1 4 0 2 -2 8 0 2 -1 2 
0 3 -3 4 -1 6 0 4 -1 3 0 1 -1 5 -1 4 
0 7 -1 5 0 1 -3 4 0 1 -1 1 0 2 -1 1 
-1 1 -3 13 -1 4 0 4 -2 3 -2 6 -1 4 -2 3 
-1 0 0 4 -2 1 -2 4 -1 1 -1 0 0 4 -1 2 
-2 3 -2 2 -2 5 -1 5 0 7 -3 9 -1 5 -3 10 
-3 9 -2 5 -1 5 -1 1 0 2 -1 3 -4 5 -5 9 
-1 1 0 2 -3 7 -1 4 -2 2 -1 1 -1 1 0 2 
-1 2 0 4 -1 1 -1 6 -2 0 -1 1 -7 9 -2 6 
-3 4 -2 3 -3 1 -1 0 -1 1 -1 1 -1 0 -1 1 
-1 0 -1 0 -8 12 -7 2 -1 2 -5 6 -6 7 -3 5 
-6 6 -1 0 -6 8 -4 4 -8 8 -8 4 -8 3 -3 7 
-8 10 -6 6 -8 9 -7 6 -1 0 -1 2 -3 4 -1 0 
-1 1 0 3 -1 0 -1 4 -2 3 -2 2 -4 4 -2 0 
-6 6 0 1 -4 3 -3 6 0 4 -1 0 -1 2 -1 0 
-2 0 -1 1 -2 0 -28 6 -26 6 -29 8 -1 2 -1 0 
-24 5 -26 7 -26 7 -1 0 -23 8 -28 11 -23 10 -24 10 
-1 1 -1 1 -2 1 0 1 -1 1 0 2 -1 0 -2 1 
-2 0 -328 19 -329 17 -322 18 -328 23 -330 24 -331 28 -327 28 
-328 24 -2 0 -323 33 -323 27 -22 46 4560 283 238 MP stroke
/c10 { 0.000000 0.000000 1.000000 sr} bdef
c10
-61 386 0 46 -1 85 -1 73 0 70 -1 4 0 1 -1 3 
0 45 -1 82 -1 107 -1 97 -1 114 0 3 -1 113 -1 100 
0 102 -1 10 0 25 -2 130 -1 7 0 31 -1 30 0 50 
-1 16 0 4 -1 2 -1 18 0 37 -1 17 0 10 -1 20 
-2 16 0 7 -1 4 0 2 -1 4 0 32 -1 6 -1 22 
0 14 -1 7 0 11 -1 2 -1 32 -1 5 -1 1 -1 10 
0 6 -3 7 -1 48 -1 17 -1 3 -1 3 0 6 -1 5 
0 5 -1 6 0 4 -1 26 -2 20 -1 3 0 9 -5 18 
0 2 -1 5 0 6 -1 3 0 3 -3 12 0 4 -1 4 
0 11 -3 10 0 2 -1 7 -1 11 -1 8 0 2 -4 8 
0 11 -1 1 -1 5 -1 2 0 1 -4 4 0 1 -1 3 
0 2 -1 2 -2 4 0 4 -1 7 -2 6 -1 1 0 5 
-1 7 -1 5 0 3 -3 5 -2 5 -1 0 -1 12 -1 1 
-2 3 -1 2 -1 2 0 2 -1 4 -1 0 0 2 -1 1 
-1 2 -1 2 -4 10 -1 1 0 1 -1 2 -1 7 0 1 
-1 1 -2 15 -2 4 0 2 -1 1 0 2 -1 2 -4 11 
-1 1 -1 0 0 0 -3 1 -5 3 -2 0 0 1 -10 5 
-2 6 -2 3 0 0 -8 3 -5 4 -2 1 -1 0 -7 1 
-6 5 -1 0 -2 3 -2 3 -1 0 -4 2 -6 2 0 1 
-1 2 -6 9 -2 0 -5 3 -1 1 -3 2 -1 0 0 2 
-9 4 -2 1 -4 3 -7 5 -5 6 -4 2 -4 3 -4 2 
-1 0 -11 2 -8 6 -2 4 -5 3 -2 0 -1 0 -1 2 
-3 1 -3 4 -1 4 0 2 -3 4 -3 3 -7 2 -1 3 
0 1 -3 1 -8 6 -17 2 -1 1 -5 10 -3 1 -16 3 
-2 3 -5 2 -3 0 -3 3 -3 2 -1 2 -2 0 -3 2 
-2 0 -3 0 -3 6 -40 7 -17 3 -15 7 -6 3 -1 1 
-2 2 -4 0 -6 1 -1 1 -11 2 -1 2 -3 0 -4 1 
-3 2 -19 3 -65 9 -16 3 -4 1 -56 9 -4 0 -8 2 
-5 6 -1 0 -17 6 -1 3 -4 0 -4 2 -1 0 -8 3 
0 1 -15 3 -3 1 -16 3 -22 5 -14 4 0 2 -57 9 
-52 10 -1 2 -4 2 -3 0 -6 0 0 1 -14 5 -28 4 
-2 2 -27 4 -1 1 -2 2 -2 3 -22 5 -2 2 -3 1 
-3 0 -1 0 -20 3 -1 0 -3 2 -327 22 -2 0 -3 1 
-1 2 -20 3 -2 1 -5 0 -253 4 -22 2 -249 2 -253 5 
-265 7 -253 6 -17 0 -252 8 -251 8 -252 8 -251 14 -35 2 
-98 181 4560 283 282 MP stroke
0 sg
-61 293 0 11 -1 72 0 8 -1 90 0 6 -1 7 0 23 
-1 14 -1 103 -1 98 -1 10 -1 114 -1 114 -1 100 0 101 
-1 102 -2 129 0 11 -1 3 0 7 -3 13 0 27 -1 9 
0 17 -1 28 -1 25 -1 4 -1 4 0 42 -1 28 0 3 
-1 0 0 6 -1 11 -1 13 0 15 -2 7 0 15 -1 9 
-1 27 0 8 -1 31 0 21 -1 11 0 8 -1 44 -1 29 
0 2 -1 19 0 39 -2 6 -1 21 0 7 -1 12 -1 6 
-1 8 0 38 -2 12 0 39 -2 9 -2 3 0 22 -1 9 
0 12 -1 11 -1 5 0 12 -1 10 -1 7 0 8 -2 18 
-1 2 0 2 -1 3 0 23 -1 7 0 7 -1 13 0 3 
-1 4 -1 10 -4 9 0 13 -1 5 -1 3 -1 4 0 2 
-4 13 0 3 -2 0 0 2 -5 15 -2 11 -1 5 -1 8 
-1 4 0 5 -1 0 -1 6 -2 9 -1 4 -1 3 0 2 
-1 2 -4 10 0 0 -5 16 0 1 -1 1 0 1 -1 2 
-1 1 -3 7 -3 6 -2 2 -2 4 0 2 -1 0 -3 6 
-7 6 -5 5 0 2 -2 5 0 1 -1 2 -1 2 -1 0 
-1 1 -2 10 -1 1 -1 0 -1 2 -1 1 -5 1 -2 0 
0 1 -4 2 -3 14 -3 1 -1 0 -5 4 -2 1 -5 4 
0 2 -1 0 -2 4 -8 5 -3 4 -2 1 -2 1 -4 5 
-1 0 -1 0 0 2 -1 3 0 2 -2 1 -5 2 -1 3 
-1 0 -17 3 -26 7 -4 13 -1 1 -28 11 -24 10 0 1 
-25 7 -1 1 -3 1 -21 8 -1 1 -1 0 -2 1 -1 1 
-2 2 -22 5 -3 4 -3 1 -3 3 -19 3 -1 0 -5 1 
-1 0 -1 3 -4 6 -1 2 -67 13 -23 4 -2 2 -7 0 
-1 1 -1 0 -18 5 -1 2 -1 3 -5 2 -2 1 -4 3 
-1 1 -1 0 -3 2 -46 3 -14 4 0 1 -3 2 -2 0 
-1 0 -2 0 -2 2 0 1 -5 3 -1 2 -2 1 -17 4 
0 1 -2 1 -1 1 -10 0 -3 3 -7 1 -1 0 -1 0 
-1 1 -323 26 -2 0 -325 13 -319 25 -325 26 -324 19 -325 21 
-327 28 -2 1 -2 1 -1 0 -1 0 -4 1 -16 2 -248 3 
-250 7 -251 7 -117 167 4560 283 244 MP stroke
/c11 { 1.000000 0.000000 0.000000 sr} bdef
c11
-10 83 0 54 -1 85 -1 104 0 89 -1 102 -1 116 0 2 
-1 9 0 1 -1 112 -2 127 -2 106 0 130 -1 4 0 20 
-1 5 0 92 -1 7 0 16 -1 25 0 34 -1 25 0 71 
-2 41 -1 33 -1 30 -1 36 0 19 -1 55 -1 34 0 2 
-1 15 0 33 -1 47 -1 23 -1 27 0 4 -1 8 -1 29 
0 6 -1 3 0 5 -1 4 0 1 -1 1 0 8 -1 10 
-1 4 -1 3 0 2 -1 9 0 6 -1 10 0 3 -1 5 
0 5 -2 21 -1 3 -1 8 0 7 -1 3 0 3 -1 11 
-3 15 -1 11 -1 10 0 17 -1 8 -1 13 -1 9 -1 4 
-1 13 -1 3 -1 10 0 1 -2 8 0 8 -1 2 0 12 
-2 6 -2 24 0 4 -1 11 0 3 -4 18 0 3 -2 1 
-3 8 0 11 -2 14 -2 10 -2 1 -1 5 -1 8 -2 22 
-1 12 -4 9 -1 7 -2 5 -1 6 -1 2 0 12 -2 0 
-1 1 -1 2 0 4 -3 12 0 3 -1 0 0 7 -1 3 
-1 1 -1 5 0 1 -1 1 0 1 -1 5 -1 2 0 2 
-4 4 -2 4 -1 3 -1 2 0 3 -1 2 -3 8 -2 3 
-2 1 -4 5 -3 7 -3 2 -4 5 -1 2 -1 1 -1 3 
-3 8 -4 6 -8 8 -3 4 -2 5 -3 10 -1 3 -1 4 
0 3 -14 13 -10 14 -7 7 -5 8 -8 9 -1 4 -1 0 
-6 12 -1 0 -9 17 -1 0 0 2 -6 5 -1 2 -2 6 
-1 1 -5 4 0 2 -1 1 -1 1 -3 3 0 0 -2 3 
-2 0 -1 1 -5 7 -1 3 -2 7 -1 2 -1 1 -4 2 
-3 7 -1 0 -1 2 -5 5 -6 6 -1 3 -1 0 -3 3 
0 0 -5 7 -3 4 -2 3 0 1 -3 4 -1 0 -2 3 
0 1 -2 4 -1 7 -1 1 -1 4 -29 6 -26 7 -29 8 
-1 0 -1 5 -25 5 -26 7 -26 7 0 1 -22 7 -28 11 
-24 10 -24 11 -1 1 -3 1 -1 0 -1 1 -1 0 -1 2 
-2 0 -1 0 -1 2 -1 1 -71 14 -2 0 -2 3 -69 18 
-3 1 -1 0 -72 18 -2 0 -3 0 -1 0 -3 1 -3 0 
-1 2 -2 0 -1 0 -2 0 -3 2 -3 2 -3 0 0 1 
-1 2 -1 1 -1 2 -328 18 -330 24 -322 32 -326 13 -327 24 
-323 26 -329 28 -247 2 -257 3 -252 8 -22 43 4560 283 255 MP stroke
DA
0 sg
3905 -3081 655 3364 2 MP stroke
gr

DA
 372 2307 mt  -90 rotate
(True Positive Rate) s
90 rotate
2097 3652 mt 
(False Positive Rate) s
 638 3407 mt 
( ) s
4544  325 mt 
( ) s
SO
1 sg
0 918 1739 0 0 -918 2762 3305 4 MP
PP
-1739 0 0 918 1739 0 0 -918 2762 3305 5 MP stroke
4 w
DO
SO
6 w
0 sg
2762 2387 mt 4501 2387 L
2762 3305 mt 4501 3305 L
4501 3305 mt 4501 2387 L
2762 3305 mt 2762 2387 L
2762 3305 mt 4501 3305 L
2762 3305 mt 2762 2387 L
2762 2387 mt 4501 2387 L
2762 3305 mt 4501 3305 L
4501 3305 mt 4501 2387 L
2762 3305 mt 2762 2387 L
3236 2521 mt 
(No context) s
gs 2762 2387 1740 919 rc
c8
365 0 2834 2478 2 MP stroke
gr

c8
0 sg
3236 2668 mt 
(Architecture) s
gs 2762 2387 1740 919 rc
c9
365 0 2834 2625 2 MP stroke
gr

c9
0 sg
3236 2815 mt 
(NFR) s
gs 2762 2387 1740 919 rc
c10
365 0 2834 2772 2 MP stroke
gr

c10
0 sg
3236 2962 mt 
(Random English words) s
gs 2762 2387 1740 919 rc
365 0 2834 2919 2 MP stroke
gr

3236 3109 mt 
(LDA) s
gs 2762 2387 1740 919 rc
c11
365 0 2834 3066 2 MP stroke
gr

c11
0 sg
3236 3256 mt 
(Base line) s
gs 2762 2387 1740 919 rc
DA
365 0 2834 3213 2 MP stroke
SO
gr


end %%Color Dict

eplot
%%EndObject

epage
end

showpage

%%Trailer
%%EOF
