<?xml version="1.0" encoding="UTF-8" standalone="no"?>
<!-- Created with Inkscape (http://www.inkscape.org/) -->

<svg
   xmlns:dc="http://purl.org/dc/elements/1.1/"
   xmlns:cc="http://creativecommons.org/ns#"
   xmlns:rdf="http://www.w3.org/1999/02/22-rdf-syntax-ns#"
   xmlns:svg="http://www.w3.org/2000/svg"
   xmlns="http://www.w3.org/2000/svg"
   xmlns:sodipodi="http://sodipodi.sourceforge.net/DTD/sodipodi-0.dtd"
   xmlns:inkscape="http://www.inkscape.org/namespaces/inkscape"
   width="1339.1875"
   height="1496.3125"
   id="svg4982"
   version="1.1"
   inkscape:version="0.48.4 r9939"
   sodipodi:docname="bug-report.svg">
  <defs
     id="defs4984" />
  <sodipodi:namedview
     inkscape:document-units="in"
     pagecolor="#ffffff"
     bordercolor="#666666"
     borderopacity="1.0"
     inkscape:pageopacity="0.0"
     inkscape:pageshadow="2"
     inkscape:zoom="0.72"
     inkscape:cx="540.40972"
     inkscape:cy="1067.6429"
     inkscape:current-layer="layer1"
     id="namedview4986"
     showgrid="false"
     units="in"
     fit-margin-top="0"
     fit-margin-left="0"
     fit-margin-right="0"
     fit-margin-bottom="0"
     inkscape:window-width="1366"
     inkscape:window-height="713"
     inkscape:window-x="0"
     inkscape:window-y="27"
     inkscape:window-maximized="1" />
  <metadata
     id="metadata4988">
    <rdf:RDF>
      <cc:Work
         rdf:about="">
        <dc:format>image/svg+xml</dc:format>
        <dc:type
           rdf:resource="http://purl.org/dc/dcmitype/StillImage" />
        <dc:title></dc:title>
      </cc:Work>
    </rdf:RDF>
  </metadata>
  <g
     inkscape:label="Layer 1"
     inkscape:groupmode="layer"
     id="layer1"
     transform="translate(-21.8125,606.6875)">
    <rect
       style="fill:#ffccaa;fill-opacity:1;stroke:#000000;stroke-width:3.54330707;stroke-miterlimit:4;stroke-opacity:1;stroke-dasharray:none;stroke-dashoffset:0"
       id="rect5054"
       width="1335.6461"
       height="1492.781"
       x="23.570227"
       y="-604.91864" />
    <rect
       style="fill:#ffe6d5;fill-opacity:1;stroke:#000000;stroke-width:2.4676671;stroke-miterlimit:4;stroke-opacity:1;stroke-dasharray:none;stroke-dashoffset:0"
       id="rect5054-0"
       width="1211.0139"
       height="798.53497"
       x="78.02961"
       y="-526.88904" />
    <path
       style="fill:#ff00ff;stroke:#000000;stroke-width:1px;stroke-linecap:butt;stroke-linejoin:miter;stroke-opacity:1"
       d="m 593.5179,-63.997796 c -3.43996,26.10938 3.09321,53.06051 2.30331,78.31244 3.73737,26.58082 4.5798,40.7871 9.21323,65.64425 2.36454,19.2195 9.08233,40.217916 14.61378,56.330126 8.66414,12.53044 13.07655,26.3862 24.54244,36.9538 20.54784,5.80031 36.59166,-10.90039 47.21779,-29.94299 22.37194,-39.156 34.52039,-84.307176 42.61118,-127.833536 1.77124,-30.70112 8.92347,-61.28251 5.75827,-92.13228 -1.38729,-8.8641 1.97467,0.90252 1.15165,2.30331"
       id="path4136"
       inkscape:connector-curvature="0" />
    <path
       style="fill:#ff00ff;stroke:#000000;stroke-width:1px;stroke-linecap:butt;stroke-linejoin:miter;stroke-opacity:1"
       d="m 614.86806,-171.48611 c -7.3778,3.8111 -3.20558,-1.2205 -1.75464,0.26473 -12.71074,0.11368 -14.84432,15.59479 -19.08955,24.80834 -5.51858,12.4284 -6.86382,26.36121 -7.05075,39.90224 2.62096,10.541744 2.32634,21.826975 4.62755,32.627122 0.91766,10.64396 12.71392,15.050332 21.33172,18.359291 10.6847,1.687886 20.87431,3.91484 31.0702,7.429683 14.62002,3.558781 29.3427,7.878227 44.47658,9.247474 12.83163,1.004898 25.90579,1.03935 38.69853,3.528673 11.36667,1.694579 19.49394,-5.905301 22.61199,-10.684359 6.50321,-8.414276 7.46596,-19.667857 13.68948,-28.260974 5.29341,-15.333503 5.32453,-32.34728 0.0654,-47.4469 -6.62753,-9.14599 -12.61117,-20.84347 -23.73812,-25.5024 -7.42334,-4.95542 -17.00809,-8.97443 -25.49335,-13.20899 -11.44376,-4.53409 -23.70902,-6.33648 -35.98962,-5.5099 -11.22243,0.90336 -21.81506,-1.73819 -32.95543,-1.65893 -10.08895,-3.26095 -21.0998,1.703 -30.49997,-3.8951 z"
       id="path5099"
       inkscape:connector-curvature="0" />
    <path
       style="fill:#00ff00;stroke:#000000;stroke-width:1px;stroke-linecap:butt;stroke-linejoin:miter;stroke-opacity:1"
       d="m 603.88278,-54.784566 c -2.41721,13.3283 9.21968,24.33865 5.75827,40.58969 1.15512,21.0830204 4.95985,40.68743 5.75827,61.90747 3.73957,16.41543 7.90875,32.73696 12.66819,49.5211 3.46621,12.394256 7.46872,25.048156 9.21323,38.004566 5.43014,5.34387 7.6818,19.79261 17.2748,16.12315 14.59667,-9.02152 25.7601,-24.11965 27.63968,-38.00457 8.02207,-23.693636 11.24373,-49.207516 18.42646,-73.705816 4.10546,-22.12758 3.41612,-46.2412396 5.75827,-69.09921 2.97474,-10.13504 8.20473,-30.56884 -2.30331,-39.15622 -14.40534,-11.23899 -43.58064,-8.77541 -63.34094,-5.75827 -10.67089,3.99673 -24.87695,5.54411 -24.18473,20.72976 -2.60324,13.63622 -8.02654,32.6874 3.45496,43.7628404 8.61499,17.15039 35.00083,8.42997 51.82441,8.06157 3.76656,-1.42544 -30.91353,-0.51893 -36.85291,3.45496 -8.60459,8.9903196 -11.69778,21.5401896 -9.21323,34.5496096 0.80274,12.92465 8.20098,23.19556 23.31489,20.72976 5.67701,0.54813 36.46779,-2.73623 23.9029,-2.30331 -13.77164,-1.12367 -31.51235,4.34913 -35.70125,13.81984 -6.89897,10.50121 -4.68958,22.89459 1.15165,31.09465 2.20407,8.352826 27.19442,3.788446 28.79134,3.454956 l -1.15166,-1.15165"
       id="path4154"
       inkscape:connector-curvature="0" />
    <path
       style="fill:#ff00ff;stroke:#000000;stroke-width:1px;stroke-linecap:butt;stroke-linejoin:miter;stroke-opacity:1"
       d="m 691.40845,-262.93055 c -18.83902,-10.42323 -52.15481,-4.60161 -73.70582,0 -29.57081,8.55037 -60.02586,36.2403 -55.27937,66.7959 15.22118,37.02583 66.75529,49.48517 103.64881,43.76284 41.12491,-0.36904 75.59896,-17.52393 104.89101,-33.10597 -3.89763,-2.74354 56.83519,-33.35625 28.78347,-56.80567 -23.0358,-17.36358 -49.04471,-20.66493 -78.6139,-20.81696 -11.6517,3.75779 -51.06248,-1.46767 -43.54404,7.07978"
       id="path4094"
       inkscape:connector-curvature="0" />
    <path
       style="fill:#ff00ff;stroke:#000000;stroke-width:1px;stroke-linecap:butt;stroke-linejoin:miter;stroke-opacity:1"
       d="m 640.7357,-300.08677 c -4.81197,-25.99319 -25.4576,-47.27229 -39.15622,-71.40252 -8.64707,-10.50909 -18.00917,-35.61893 -23.03307,-50.67275 -6.5686,-17.11865 -24.47791,-15.84678 -39.15622,-4.60662 -22.11376,14.76252 -42.41255,30.16533 -66.79591,41.45953 -11.91303,13.91107 -43.43442,20.32196 -36.85291,34.5496 18.52177,-0.1408 45.15741,-4.90388 50.67276,-13.81984 7.3976,-8.18203 15.44653,-17.84106 27.5955,-25.44304 17.63605,-3.86783 46.52917,-23.20483 55.32355,-6.80326 7.26217,14.81874 8.74695,39.9457 18.42645,55.27937 13.06333,17.3464 18.12476,20.67051 25.33638,36.85291 4.44458,5.91124 17.0807,17.71487 13.81984,23.03307"
       id="path4104"
       inkscape:connector-curvature="0" />
    <path
       style="fill:#00ffff;stroke:#000000;stroke-width:1px;stroke-linecap:butt;stroke-linejoin:miter;stroke-opacity:1"
       d="m 663.76877,-302.39008 c -22.10904,-27.01194 -51.3153,5.14348 -66.79591,25.33638 -27.81296,19.6536 -34.99052,75.12328 11.61048,69.09921 27.40335,1.29564 52.97633,-13.51305 75.91519,-25.33638 16.79061,-15.8777 36.34168,-36.5059 29.94299,-59.88598 -6.38128,-27.57423 -44.68021,-22.40408 -56.34789,-10.75286 -5.73219,-8.95145 -29.2883,8.9154 -19.66124,13.05617"
       id="path4096"
       inkscape:connector-curvature="0" />
    <path
       style="fill:#00ffff;stroke:#000000;stroke-width:1px;stroke-linecap:butt;stroke-linejoin:miter;stroke-opacity:1"
       d="m 774.3275,-318.51323 c -27.9153,-8.24379 -53.27627,18.15869 -59.88598,43.76284 -10.46614,28.22843 -1.25874,78.30261 39.15622,62.18929 35.4961,-9.5026 72.99712,-38.37734 78.31244,-76.00914 -4.68696,-28.15443 -40.87529,-23.58201 -57.58268,-13.81984 -12.35208,0.46339 -18.17683,10.88184 -29.94299,11.51654"
       id="path4098"
       inkscape:connector-curvature="0" />
    <path
       style="fill:#ff0000;stroke:#000000;stroke-width:1px;stroke-linecap:butt;stroke-linejoin:miter;stroke-opacity:1"
       d="m 636.12908,-182.61811 c -15.488,-9.06891 -43.77226,-5.70361 -62.18929,6.90992 -24.37874,24.64524 -48.44827,59.04317 -41.45952,94.435594 9.82056,33.32087 55.04707,39.74842 85.59812,41.45952 17.07361,-2.57672 51.03315,6.77871 52.6003,-11.51653 -10.64923,-11.37998 -33.20338,-18.11964 -43.76284,-23.03307 -16.28018,-10.73649 -55.89113,-11.69923 -13.81984,-13.81984 25.13828,-5.60004 35.1403,-27.595884 6.90992,-32.246304 -40.3356,-3.86229 -1.77657,-11.61027 13.81985,-20.72976 13.68762,-9.02687 1.022,-20.33628 -16.12315,-20.72977 -9.06846,-7.63221 47.84191,-51.7828 18.42645,-20.72976 l 0,0 z"
       id="path4100"
       inkscape:connector-curvature="0" />
    <path
       style="fill:#ff2a2a;stroke:#000000;stroke-width:1px;stroke-linecap:butt;stroke-linejoin:miter;stroke-opacity:1"
       d="m 714.44152,-191.83134 c 25.12592,-5.62939 52.98328,9.16562 55.27937,36.85291 0.20922,32.24509 -0.42687,59.083504 -27.63968,76.009134 -21.30981,5.34511 -46.34102,1.20471 -55.27937,-13.81984 9.42218,-8.419894 31.20963,-11.331234 44.84933,-18.017124 0.35151,-17.13423 -44.75811,-8.52481 -50.60772,-11.8169 24.72055,-1.47781 26.32981,-25.14847 14.97161,-30.05196 25.62479,1.44783 46.64151,-22.85953 6.90993,-20.72976 -27.67318,-9.18917 20.05774,-18.16899 23.03307,-27.63969"
       id="path4102"
       inkscape:connector-curvature="0" />
    <path
       style="fill:#ff00ff;stroke:#000000;stroke-width:1px;stroke-linecap:butt;stroke-linejoin:miter;stroke-opacity:1"
       d="m 799.66388,-306.99669 c -1.49452,-22.67088 12.31406,-33.3194 17.19523,-55.12023 7.12982,-22.18544 18.37502,-47.29784 36.86775,-65.73865 11.01151,-12.31153 14.56888,-22.62934 31.15938,-12.73293 16.79524,8.09205 36.98249,19.75607 53.93349,37.81034 15.97766,17.84366 34.53524,33.84885 54.32193,45.10871 4.7076,16.38053 -29.28038,-5.96682 -39.15621,-11.51653 -14.96462,-15.39636 -36.93826,-24.007 -47.34706,-32.49333 -12.60452,-15.60295 -37.51851,-10.97829 -44.78522,4.85364 -15.18382,20.39267 -20.92221,40.29957 -36.10487,56.55955 -13.17348,12.54876 -7.8159,26.30256 -26.08442,33.26943 z"
       id="path4106"
       inkscape:connector-curvature="0" />
    <path
       style="fill:none;stroke:#000000;stroke-width:1px;stroke-linecap:butt;stroke-linejoin:miter;stroke-opacity:1"
       d="m 978.04219,-376.37918 c -9.69354,1.63164 -19.48783,36.29511 2.55033,12.13867 6.30247,-1.77068 -3.52778,-9.136 -2.55033,-12.13867 z"
       id="path4110"
       inkscape:connector-curvature="0" />
    <path
       style="fill:#ff2a2a;stroke:#000000;stroke-width:1px;stroke-linecap:butt;stroke-linejoin:miter;stroke-opacity:1"
       d="m 625.7642,93.778734 c -0.96348,-2.4475 -22.95872,9.055296 -25.33638,26.488026 -13.39553,34.94116 -24.94063,71.45169 -20.72976,108.25543 3.72668,9.59273 -10.56582,7.69801 -10.36488,18.42646 -8.53328,16.56366 1.02146,6.94896 9.21323,-1.15166 8.99273,-0.67029 19.35153,-10.69613 16.12315,-20.72976 -5.17784,-14.80376 1.04974,-34.28877 4.60661,-50.67275 5.50534,-21.41605 12.89547,-42.90184 21.88142,-62.18929 7.18967,-7.88327 27.95945,-22.614506 4.60661,-24.184726 -2.8794,0.28914 -9.51687,-1.54951 0,5.75827 z"
       id="path4138"
       inkscape:connector-curvature="0" />
    <path
       style="fill:#ff2a2a;stroke:#000000;stroke-width:1px;stroke-linecap:butt;stroke-linejoin:miter;stroke-opacity:1"
       d="m 693.71176,90.323774 c -14.11506,-0.84923 -17.00321,13.851026 -10.614,26.770746 23.34886,17.13807 44.25542,37.73834 53.22518,66.51319 14.08673,21.51814 8.92998,48.13864 13.81984,71.49646 -6.93966,14.56055 24.29129,14.82047 20.72976,6.81597 -1.19082,-13.99703 -6.96819,-20.67696 -12.66819,-29.94299 -4.8829,-12.36089 -3.38163,-29.73487 -4.60661,-42.893 -0.95047,-19.23782 -0.37284,-38.29818 -10.36488,-52.69424 -4.17414,-9.57688 -8.76299,-14.94336 -13.81984,-20.72976 -6.26281,-10.47365 -9.85767,-15.30519 -18.96992,-24.728176 -3.69736,-4.5599 -17.37379,-16.41978 -15.57969,-13.27639"
       id="path4140"
       inkscape:connector-curvature="0" />
    <path
       style="fill:#ff2a2a;stroke:#000000;stroke-width:1px;stroke-linecap:butt;stroke-linejoin:miter;stroke-opacity:1"
       d="m 596.97286,-4.1118156 c -1.72019,0.5224 -27.51854,0.86242 -40.30787,11.51654 C 539.24861,19.190224 520.5593,33.138114 509.4472,47.712594 c -10.5347,17.32883 -18.29383,36.87945 -26.48803,54.127716 2.15938,-9.455486 10.13834,-14.517626 14.97149,-26.488026 11.26312,-15.90811 23.36693,-25.78409 35.70126,-38.00457 17.43817,-9.36351 33.70063,-21.20691 51.82441,-26.48803 10.6285,-4.1014096 20.5464,-11.31485958 24.18472,-17.2747996 8.75861,-5.9607104 -11.20262,1.29459 -12.66819,2.3033 z"
       id="path4142"
       inkscape:connector-curvature="0" />
    <path
       style="fill:#ff2a2a;stroke:#000000;stroke-width:1px;stroke-linecap:butt;stroke-linejoin:miter;stroke-opacity:1"
       d="m 737.47459,6.2530644 c 8.14634,-1.9957 -24.2517,-14.73526 -21.88142,-1.15165 9.29628,17.7858396 30.55243,27.0334796 44.17207,42.3154496 23.79574,12.61315 36.04771,37.48627 54.57441,55.984326 3.82397,7.42245 21.74089,31.65235 17.57053,13.41061 -6.54446,-9.0175 -9.99869,-20.891096 -18.42646,-28.791336 -10.54377,-20.51859 -36.47724,-27.95225 -44.91448,-49.5211 -6.70509,-10.99788 -14.77485,-21.93521 -24.18473,-28.7913396 -7.33309,-4.76376 -14.94447,-3.50569 -19.57811,-10.36487998"
       id="path4144"
       inkscape:connector-curvature="0" />
    <path
       style="fill:#ff0000;stroke:#000000;stroke-width:1px;stroke-linecap:butt;stroke-linejoin:miter;stroke-opacity:1"
       d="m 744.38451,-47.874646 c -17.48923,-18.75334 -22.79811,14.87625 -6.90992,19.57811 7.34289,2.95232 13.16361,6.38177 22.32008,10.29387 8.51722,4.6243 30.98224,11.9731004 24.45905,10.5069004 8.73876,4.76003 21.69834,7.86661002 29.23,12.59718 17.86511,7.2271596 37.04709,11.0077396 54.12772,13.8198396 12.93192,1.44312 1.13396,-22.1115796 0,-29.94299 -6.18432,-6.98028 -9.40096,-20.61501 -11.51654,-32.2463 -3.8607,-12.22865 -2.93344,-27.46903 -9.21322,-35.70126 1.34081,-9.29888 6.73327,-32.036524 -2.30331,-32.246294 -4.82679,5.67804 -10.88176,13.838024 -11.51654,24.184724 1.08573,17.19166 -24.90827,1.18537 -24.18472,14.9715 1.97849,7.91374 7.21848,11.19347 17.2748,10.36488 5.15069,1.54622 8.2759,10.30852 12.66819,16.12315 8.09603,9.05686 9.96287,23.74395 14.9715,32.24629 2.3822,7.6958504 22.60474,22.6443704 -3.45496,17.2748104 -13.60435,-4.20240998 -24.37535,-9.05243 -35.70126,-17.2748104 -15.48098,-3.28944 -24.53207,-15.59461 -34.54961,-25.33637 -13.22572,-5.33906 -23.03578,-18.92424 -39.15622,-17.27481 l 0.31495,1.57769 -1.4666,0.72562"
       id="path4146"
       inkscape:connector-curvature="0" />
    <path
       style="fill:#ff2a2a;stroke:#000000;stroke-width:1px;stroke-linecap:butt;stroke-linejoin:miter;stroke-opacity:1"
       d="m 591.2146,-25.993226 c -20.14517,9.39185 -42.3058,10.66367 -63.34095,19.5781104 -21.84917,3.65843 -40.51613,17.8309896 -63.34094,10.36488 -9.15929,-3.34299998 -5.12582,-16.1891404 1.3727,-23.1944904 6.32173,-12.2044 17.189,-28.10295 26.26698,-41.29811 4.09894,-6.96261 7.40706,-12.10865 16.12315,-14.9715 7.09811,-5.01467 2.06689,-14.5995 -0.79394,-20.62887 -4.9965,-11.054944 5.26605,-14.391394 14.61378,-15.072384 3.48119,9.75607 -3.91073,25.929694 5.75827,29.942994 11.00942,-7.9186 -7.04391,5.79739 -4.60661,2.3033 -7.80694,4.13406 -12.53062,12.07978 -19.57811,17.27481 -3.19387,7.97541 -7.60072,15.56313 -11.51654,21.88141 -5.13209,4.89832 -11.30416,13.30865 -11.51653,23.03307 10.7922,5.41765 25.15529,-5.25971 39.15622,-5.75826 19.75989,-6.81638 41.7956,-6.37713 62.18929,-10.36489 12.81858,-0.90228 16.99191,6.80612 9.21323,6.90993 -5.03858,-1.70609 -3.50333,4.63205 -6.90993,4.60661"
       id="path4152"
       inkscape:connector-curvature="0" />
    <text
       xml:space="preserve"
       style="font-size:230.61341858px;font-style:normal;font-variant:normal;font-weight:bold;font-stretch:normal;text-align:center;line-height:125%;letter-spacing:0px;word-spacing:0px;text-anchor:middle;fill:#000000;fill-opacity:1;stroke:none;font-family:Impact;-inkscape-font-specification:Impact Bold"
       x="763.41656"
       y="456.14734"
       id="text5056"
       sodipodi:linespacing="125%"
       transform="scale(0.91957504,1.0874588)"><tspan
         sodipodi:role="line"
         id="tspan5058"
         x="763.41656"
         y="456.14734">Wanted</tspan><tspan
         sodipodi:role="line"
         x="763.41656"
         y="744.41412"
         id="tspan5078">Issue #: 2219</tspan></text>
  </g>
</svg>
